Coins,Rank,Price,1hourChange,1dayChange,7daysChange
Bitcoin,1,8366.68570002,0.229416,-1.06708,1.71316
Ethereum,2,186.538869221,0.427185,1.04303,3.75026
XRP,3,0.291379172164,0.458541,3.82824,5.77226
Tether,4,1.00465844582,0.255006,-0.12243,-0.195191
Bitcoin Cash,5,228.211872663,-0.264271,0.631286,-2.60254
Litecoin,6,56.9107973245,0.153741,-1.07138,-1.13585
EOS,7,3.17172302945,-0.0579289,1.42354,0.500193
Binance Coin,8,18.2169945116,-0.114857,-1.68727,14.2798
Bitcoin SV,9,87.2270853574,0.269431,-0.58606,3.00794
Stellar,10,0.0635944405527,0.38889,3.08742,3.56657
TRON,11,0.0166498462668,0.0995955,2.33574,3.14633
Cardano,12,0.0416669511864,0.264802,0.114377,0.70319
UNUS SED LEO,13,0.980414635589,0.59915,-1.88067,2.10373
Monero,14,53.3046763821,0.520585,-1.38958,-6.07418
Chainlink,15,2.57193665529,1.00828,0.649723,7.41435
Huobi Token,16,3.65451915805,0.674577,4.3261,15.5069
IOTA,17,0.279249342503,-0.569605,-0.862596,-1.01368
Dash,18,71.2922364818,0.264134,-1.00516,-0.323406
Tezos,19,0.93062359863,0.57116,0.439416,1.81898
Cosmos,20,3.01648340073,-0.017976,4.17554,6.30306
Ethereum Classic,21,4.81374786175,0.129928,0.440586,2.84708
NEO,22,7.44390547035,0.533174,-0.249678,-0.605932
Maker,23,511.067947155,0.257145,0.331083,13.3067
USD Coin,24,1.00280788008,0.27201,-0.0056472,-0.160563
Crypto.com Coin,25,0.0342304561283,-0.12629,-2.26798,-4.05922
NEM,26,0.0389456576296,0.295813,-1.96668,-3.26613
Ontology,27,0.635242565271,-0.0851246,-1.7672,-0.116006
Dogecoin,28,0.00251828626261,-0.336599,0.448018,5.6148
Basic Attention Token,29,0.211227475328,0.829505,3.90124,8.34541
Zcash,30,37.3514881517,0.562842,-0.14459,-0.999793
Paxos Standard,31,1.00306899832,0.253825,0.00512362,-0.108832
HedgeTrade,32,0.784107534638,0.182175,-0.733194,-1.10961
VeChain,33,0.0035938793479,0.442639,-1.61923,3.72953
0x,34,0.317265002543,0.413091,14.8425,42.6293
TrueUSD,35,1.00100372496,0.222948,-0.199898,-0.266011
Qtum,36,1.81866635165,0.683419,0.572957,1.83045
Decred,37,16.1714798304,-0.0111905,-1.45095,-7.08373
Ravencoin,38,0.035806669115,0.0880664,-3.22629,11.4045
ZB,39,0.304099632604,-0.475602,0.545159,1.70948
V Systems,40,0.076508579461,-0.676521,-0.901782,-0.264829
Bitcoin Gold,41,7.93587233243,0.486472,0.737509,-2.51758
EDUCare,42,0.160230678293,-1.80131,11.2748,0.055613
Holo,43,0.000808805938832,0.208167,-0.875715,12.7527
ABBC Coin,44,0.220851885275,-0.11003,-1.97972,4.43654
OmiseGO,45,0.830897554309,0.237468,-1.1985,-8.24344
Swipe,46,1.92564981428,0.373314,-0.574945,3.32736
Algorand,47,0.266600652568,1.99054,3.80315,20.535
DigiByte,48,0.0087883955734,0.0320267,0.360787,15.3766
Nano,49,0.787186271563,-0.0645913,-0.0837787,5.1852
Siacoin,50,0.00240615786875,1.02539,4.58934,40.985
Centrality,51,0.122942415922,11.8322,-7.41493,54.9789
KuCoin Shares,52,1.13188315449,0.371933,-1.04057,1.69922
Lisk,53,0.815329308296,0.245486,-1.3548,-12.0929
BitTorrent,54,0.000441263376281,0.405387,-0.92225,1.3992
Bitcoin Diamond,55,0.491116760291,0.31559,-1.77479,1.69541
Augur,56,8.06536285739,-1.7154,-3.36935,-4.0716
ICON,57,0.174201332922,0.0970117,0.902691,1.09517
Waves,58,0.859722682485,-0.0266189,0.945757,-5.94311
Dai,59,1.01392358631,-0.0242914,0.905981,0.874757
THETA,60,0.0959426534937,0.469672,5.69274,7.19771
MonaCoin,61,1.1430692393,-0.337694,-2.08975,-3.03975
BitShares,62,0.0271730606168,-0.0663279,-2.09069,-6.15846
Synthetix Network Token,63,0.541574631976,1.60692,1.76326,20.3171
Quant,64,5.8228236377,0.747809,-2.46464,-7.86091
Komodo,65,0.602875229148,-0.143442,-0.467564,-4.23388
HyperCash,66,1.47787187361,0.503031,-3.6281,-8.82188
Bytecoin,67,0.000354523070465,-15.1787,-21.1438,-15.7551
MaidSafeCoin,68,0.135413557486,0.608093,-8.56844,-11.0818
Verge,69,0.00382407163109,-1.23312,3.31627,9.60646
IOST,70,0.00491116996221,0.0572947,-1.42099,-6.97178
Bytom,71,0.0577012233979,0.361254,-0.571975,-0.0578095
MCO,72,3.58964534113,-0.158356,-3.09527,19.027
Energi,73,2.56568547874,0.141411,-1.48164,-7.30323
Aeternity,74,0.190394706411,-0.458384,5.01485,6.21086
Ardor,75,0.0545646717748,-0.184561,-1.87789,-4.22941
Ren,76,0.0655635339857,1.86178,9.15724,46.869
Aurora,77,0.0079288881418,-0.239945,1.67127,0.962966
Nexo,78,0.0914109893678,0.416358,-1.02511,-2.1868
Golem,79,0.0518864834923,-0.0352034,-0.518371,3.63602
Zilliqa,80,0.00575386276789,-0.267359,-0.38133,-2.5273
Crypterium,81,0.58822711981,3.73133,-11.3665,1.20645
Enjin Coin,82,0.0633937233112,0.171903,-0.539512,-1.43379
Pundi X,83,0.000206809811383,0.0452517,-2.34535,-6.39651
Steem,84,0.137463027526,-0.153928,-1.0371,-5.16673
RIF Token,85,0.0935386148057,0.261155,-7.67833,-12.0907
Zcoin,86,5.39085534817,-0.948336,-3.9829,-5.62272
Nash Exchange,87,1.25139079485,0.501456,5.95709,13.2451
Status,88,0.0130101320639,0.336049,-1.02043,-1.34858
aelf,89,0.0817186621104,0.574181,0.456,5.8977
Seele,90,0.0547077215518,0.236594,1.70931,-2.22938
Electroneum,91,0.0037837770415,0.94354,0.51725,-5.65028
Stratis,92,0.370147773224,0.320951,7.15248,5.78973
BitCapitalVendor,93,0.0413183942913,-0.521366,0.190507,7.5718
Newton,94,0.00303490639986,0.386724,0.350357,9.30815
STASIS EURO,95,1.10857582561,0.170394,0.180685,1.02217
Decentraland,96,0.0330589156096,2.02079,2.16171,11.9119
Factom,97,3.52923530384,-1.1615,-0.78291,-6.80465
Matic Network,98,0.0156115800972,2.04693,5.52071,42.3981
XMax,99,0.00199646041064,0.140035,0.681032,-2.63894
Kyber Network,100,0.1981060494,0.746091,1.60512,1.89642
