Coins,Rank,Price,1hourChange,1dayChange,7daysChange
Bitcoin,1,8319.8222594,-0.170548,-0.116395,1.07421
Ethereum,2,184.476484231,-0.140881,0.499844,1.96279
XRP,3,0.29071898384,-0.678131,0.388186,5.54634
Tether,4,1.00353426239,0.00804612,-0.145629,-0.116169
Bitcoin Cash,5,226.02357459,-0.0929884,-0.187402,-2.8642
Litecoin,6,55.8566578957,-0.0374706,-2.13732,-2.80417
Binance Coin,7,18.9244481809,-0.64622,3.82747,18.3441
EOS,8,3.12196956877,0.0816143,-0.84467,-1.39827
Bitcoin SV,9,87.6630181209,0.463573,1.02064,3.88513
Stellar,10,0.0647915802163,0.0718335,2.83769,4.93608
TRON,11,0.0165319941778,-0.0935898,-0.141663,1.42415
Cardano,12,0.0412962724262,0.0691982,-1.15627,0.810812
UNUS SED LEO,13,1.00166172277,0.131209,3.30185,5.15682
Monero,14,53.0898306886,-0.000745445,-0.693818,-5.17582
Chainlink,15,2.55626257729,0.519811,-1.42294,4.53017
Huobi Token,16,3.6135303998,-0.280124,0.213391,13.5357
IOTA,17,0.28283415095,0.713698,0.287644,2.50259
Dash,18,72.6249858386,1.01096,2.21637,-0.239579
Tezos,19,0.923642040081,0.326279,0.416807,2.06574
Cosmos,20,3.06460821489,-0.112574,1.05792,4.62928
Ethereum Classic,21,4.67845363289,0.0516087,-2.86517,0.81694
NEO,22,7.53400191764,-0.0552953,1.89222,0.983544
Maker,23,501.478509212,-0.200003,-1.29123,10.3348
USD Coin,24,1.00279455325,0.0275136,-0.135105,-0.0926282
Crypto.com Coin,25,0.034595452487,0.340273,0.0997714,-1.0395
NEM,26,0.0389668313378,0.0508281,0.248703,-3.44445
Ontology,27,0.647908618949,0.338193,1.87516,2.57672
Dogecoin,28,0.0025543406913,0.0638909,0.339885,9.24517
Basic Attention Token,29,0.227990793236,-0.295295,11.0599,14.3452
Zcash,30,36.9744593228,0.331593,0.0818106,-1.00073
Paxos Standard,31,1.00312786312,0.143494,-0.0956653,-0.0551701
HedgeTrade,32,0.780177036958,-0.332792,1.08215,-1.10196
0x,33,0.338250699383,1.7767,11.0066,41.8426
VeChain,34,0.00357084264269,0.323741,0.139895,1.40205
TrueUSD,35,1.00479814635,0.336207,0.204899,0.263804
Qtum,36,1.80013626289,-0.0806399,-0.184487,0.448395
Decred,37,15.8430674519,-0.131217,-0.600503,-7.06527
Ravencoin,38,0.0349630680887,0.514095,-3.02323,10.8275
Bitcoin Gold,39,8.10216366623,0.311921,3.26812,0.436001
ZB,40,0.303007319601,0.0740393,-0.536113,1.03538
EDUCare,41,0.162754772664,0.250266,1.74986,2.7295
V Systems,42,0.0755490651148,-0.010911,-3.6831,-3.1083
Holo,43,0.000801624947759,-0.432641,-0.335458,12.6746
ABBC Coin,44,0.220207384882,-0.133127,0.122275,-1.0399
Swipe,45,1.91402332711,0.182998,-0.663994,6.20751
OmiseGO,46,0.817625066841,0.0414545,-0.90702,-8.9718
Algorand,47,0.262139288057,-0.127339,1.2601,20.0926
Nano,48,0.789309310561,0.505604,0.332017,3.13543
DigiByte,49,0.0083870848867,-1.04651,-3.31648,7.81365
KuCoin Shares,50,1.1273309116,0.191028,0.0251369,1.67705
Lisk,51,0.805499925182,-0.384314,-1.23842,-12.119
Siacoin,52,0.00224249937611,-0.0938475,-2.04414,34.5988
Bitcoin Diamond,53,0.502119272262,4.33536,2.54329,3.92153
BitTorrent,54,0.00044022266698,0.00444628,-0.180659,0.61325
Augur,55,8.37223431355,1.31906,1.83413,-0.926837
Waves,56,0.884567621451,0.301723,3.29702,-3.41097
ICON,57,0.172265804598,-0.348113,-0.073054,-0.762768
Dai,58,1.00386363505,-0.332019,0.0640291,0.335617
Centrality,59,0.102690958437,-5.26417,-19.0244,12.3341
THETA,60,0.0937307182633,-1.42766,-2.83566,1.74239
Bytecoin,61,0.000415799725761,-0.287631,4.27039,-1.8028
MonaCoin,62,1.13702412111,-0.167744,-1.29826,-3.2436
BitShares,63,0.0267639166059,-0.148049,-1.52185,-6.25502
Komodo,64,0.603192011149,-0.0628174,-0.174788,-2.62266
Synthetix Network Token,65,0.497931872646,-4.03934,-6.20604,8.00308
Quant,66,5.5844809684,-0.275696,-4.1837,-16.6654
MaidSafeCoin,67,0.14506155844,-1.60078,7.92278,-4.1689
HyperCash,68,1.46347071487,0.853413,-1.91013,-8.86938
Verge,69,0.00387104695489,-0.0206286,0.894021,3.77506
IOST,70,0.00492713272195,0.141867,0.608576,-1.73426
Bytom,71,0.0575631535343,-0.476104,0.577836,-0.693722
MCO,72,3.61357347473,-0.0611516,-0.13812,20.1313
Aeternity,73,0.190725113925,-0.135989,3.44606,9.6281
Ardor,74,0.0544319183897,-1.03305,-1.62617,-5.85352
Nexo,75,0.0947071519356,0.465453,3.83137,1.29393
Ren,76,0.0643307176235,-0.192015,-1.72833,38.0229
Energi,77,2.33638953727,-0.724641,-8.71546,-17.0709
Aurora,78,0.00772895081879,-3.4552,-0.815951,-2.41591
Golem,79,0.0513065921076,-0.550037,-2.77889,-1.62624
Zilliqa,80,0.00571158174994,-0.0902525,-0.5208,-7.10449
Crypterium,81,0.579661657559,-0.644023,-8.86002,-2.0274
Enjin Coin,82,0.0621703547743,-0.315297,-2.63308,-2.8901
Pundi X,83,0.000206178620866,-0.120603,-0.516945,-5.4882
Steem,84,0.135145100147,-0.276367,-2.03829,-8.98086
Nash Exchange,85,1.28357951171,0.538138,5.19711,18.2606
Zcoin,86,5.38471362935,0.138751,-1.21828,-4.01218
RIF Token,87,0.0890254857637,-1.11597,-4.28618,-16.0801
Status,88,0.0127644726041,0.216634,-0.396225,-5.12049
aelf,89,0.0806104668843,0.122616,0.276605,0.124778
Seele,90,0.0562641115167,0.362333,4.85101,-0.554383
Electroneum,91,0.00374015144178,-1.20738,-1.61376,-8.39993
Stratis,92,0.368932632825,-1.15393,0.665479,1.61017
GXChain,93,0.563169094001,-2.31875,21.9904,33.2498
Newton,94,0.00304665666882,-1.03723,0.653156,4.13473
BitCapitalVendor,95,0.0397033594788,-0.496052,-2.61118,1.15458
STASIS EURO,96,1.09854640348,-0.0933606,-0.416281,0.503485
Factom,97,3.554109508,-2.0241,1.24658,2.43538
Decentraland,98,0.0326529212714,-0.678424,1.82356,1.62823
XMax,99,0.00197392062163,-0.447286,-0.671143,-3.84391
Kyber Network,100,0.198707275424,0.0227123,0.642711,1.53048
