Coins,Rank,Price,1hourChange,1dayChange,7daysChange
Bitcoin,1,8248.91073879,0.0000812592,0.307912,-0.358926
Ethereum,2,183.475922437,0.372033,1.18423,3.72212
XRP,3,0.279655150904,0.315483,1.29432,12.4631
Bitcoin Cash,4,234.175528611,0.213964,0.071587,4.35468
Tether,5,1.00798771125,-0.0700069,0.208583,0.283662
Litecoin,6,58.0825582623,0.433859,0.919821,3.14561
EOS,7,3.22721258972,0.667519,1.90055,9.24072
Binance Coin,8,16.9937492861,-0.340908,6.28855,7.73309
Bitcoin SV,9,84.852454329,-0.00446285,0.476291,1.39671
Stellar,10,0.0629974484216,0.310472,1.77569,7.31691
TRON,11,0.0171748354193,0.68663,6.88436,22.351
Cardano,12,0.0431512628089,1.90948,5.47243,11.9829
Monero,13,56.2361597326,0.50533,-0.162205,1.27341
UNUS SED LEO,14,0.967986087729,-0.0442334,1.85483,-6.98302
Chainlink,15,2.69660620796,-0.34117,16.6306,41.8846
Huobi Token,16,3.22270465105,-0.0374583,0.836921,2.46526
IOTA,17,0.273582685915,0.0477465,-1.40383,0.390307
Dash,18,71.5865288442,0.118106,-1.58492,2.08368
Tezos,19,0.910728263428,0.0120617,0.672309,0.104727
Cosmos,20,3.00805969885,-0.193348,3.07831,20.3974
NEO,21,7.72941892025,0.493346,3.67024,3.35119
Ethereum Classic,22,4.68866386577,0.205322,0.994094,1.29316
Maker,23,482.294665354,0.911758,5.84932,8.02237
USD Coin,24,1.00815999238,-0.0716825,0.354255,0.453494
NEM,25,0.0420917641273,0.235835,4.43059,6.1533
Crypto.com Coin,26,0.0352441242262,0.226438,0.905241,0.991065
Ontology,27,0.647904580801,0.525776,2.6485,5.99759
Dogecoin,28,0.00235175673002,0.0607678,0.674629,-0.216079
Zcash,29,37.0747580099,0.161694,-0.836764,-2.64745
Basic Attention Token,30,0.202880515275,-1.17769,3.38531,22.0484
Paxos Standard,31,1.00764249634,-0.0468382,0.310461,0.394607
HedgeTrade,32,0.797126799381,-0.0528999,0.610426,0.619542
VeChain,33,0.00376192521897,1.18477,7.82217,9.41211
TrueUSD,34,1.00465296962,-0.208036,0.186351,0.164064
Decred,35,17.1830983655,0.526237,0.946541,-1.1596
Qtum,36,1.84807917745,0.100382,3.47929,9.86792
0x,37,0.275180872606,0.722903,17.7096,29.6109
Ravencoin,38,0.0327196549484,1.62047,3.83716,9.67263
Bitcoin Gold,39,8.19150733697,0.609239,1.58386,5.30547
V Systems,40,0.0781878943929,-0.404492,1.75528,-4.08029
ZB,41,0.300716750973,0.110483,0.194491,0.835239
EDUCare,42,0.157744670051,0.289757,-0.6061,-2.21263
OmiseGO,43,0.925329469764,0.438975,2.89155,12.6872
Holo,44,0.000800711249263,11.4415,12.3632,10.464
ABBC Coin,45,0.227040519212,0.342877,2.2233,7.34053
Lisk,46,0.919569185777,0.97492,1.03232,8.45366
Nano,47,0.801253996068,-0.00230299,5.11846,8.58934
DigiByte,48,0.0084653549814,0.81976,9.18379,13.0537
Centrality,49,0.128578009811,8.10575,44.3868,384.91
Swipe,50,1.72322907114,-0.216644,-5.31928,18.3578
Bitcoin Diamond,51,0.533956483222,-1.242,11.1365,15.2278
KuCoin Shares,52,1.11827008032,-0.241551,1.0846,-2.0946
Algorand,53,0.236169792668,0.327595,8.14483,1.36042
BitTorrent,54,0.000448065223435,-0.504299,2.77009,5.51339
Augur,55,8.61220416906,-0.257931,1.63749,2.51364
Waves,56,0.931131440504,1.53534,1.52127,11.3947
ICON,57,0.18289201777,0.258137,6.28784,7.66561
Siacoin,58,0.00199304786103,3.12132,21.5798,21.8231
Dai,59,1.01397667519,-0.0157492,1.40417,0.889356
THETA,60,0.0942997455103,-0.328779,3.32739,13.0185
BitShares,61,0.0292276089362,0.927867,2.86359,4.3194
Quant,62,6.56640619759,-0.0390607,-1.42054,2.55444
MonaCoin,63,1.18067962865,-0.59623,0.293596,-3.12593
Bytecoin,64,0.00041367561793,0.184469,-2.20062,-4.52882
Karatgold Coin,65,0.0198790887387,-2.84819,-7.33821,-21.2833
Komodo,66,0.634637469444,0.596934,3.72442,8.35348
HyperCash,67,1.59744415954,0.363532,0.278525,-2.9027
MaidSafeCoin,68,0.149504042752,0.0947844,-1.46064,-3.93145
Synthetix Network Token,69,0.476388142909,0.169151,1.84912,4.70789
Verge,70,0.00390227857653,0.837514,6.14082,20.2753
IOST,71,0.00516789040921,0.520809,3.66154,8.53011
Bytom,72,0.061527558216,5.21006,6.28467,7.08535
Ardor,73,0.0594373461909,-0.436297,3.11264,10.5457
Crypterium,74,0.668283224169,-0.167987,13.5687,6.3955
Energi,75,2.61772223646,-0.394182,-7.10278,-11.3385
Zilliqa,76,0.00636304844443,0.638754,3.02571,9.11197
Aurora,77,0.00814438667842,3.14992,2.34933,13.0235
Nexo,78,0.0944507308314,1.03448,1.73751,11.4317
Pundi X,79,0.000223722515123,0.465775,3.0143,-7.10867
RIF Token,80,0.106476310092,0.0753612,0.249546,-7.24103
MCO,81,3.27495599155,1.57689,8.25405,14.193
Steem,82,0.148646068252,0.755625,2.92212,9.66434
Enjin Coin,83,0.066303476519,-0.433541,4.09067,15.5135
Golem,84,0.0524022127582,0.310681,1.61533,15.0816
Aeternity,85,0.178046915314,0.0601736,2.91987,13.4436
Status,86,0.0143159915791,4.032,8.09035,13.717
Zcoin,87,5.63598278024,0.368996,0.222757,3.6512
aelf,88,0.0835810135505,0.181298,3.93292,9.3565
Seele,89,0.0608363915458,0.455927,8.01447,27.9099
Ren,90,0.0529314848679,-0.0381659,13.2845,26.4325
Nash Exchange,91,1.11572590574,-0.0220654,3.32534,-4.64258
BitCapitalVendor,92,0.0430916770213,0.967443,13.0032,-0.26102
Electroneum,93,0.00388507587209,-0.352202,-3.33303,-2.10964
Stratis,94,0.37231799889,1.28201,5.23095,20.5553
Metaverse ETP,95,0.480094702526,2.64495,-3.72318,-13.7957
Newton,96,0.00307638274529,-0.0791088,5.27938,10.379
STASIS EURO,97,1.1005646548,0.0503444,0.80962,0.559924
XMax,98,0.0020802158258,2.8314,0.747346,14.299
Beam,99,0.86742913135,2.19701,3.41676,-1.5529
Kyber Network,100,0.202780645595,-0.0443537,4.44783,10.2882
