Coins,Rank,Price,1hourChange,1dayChange,7daysChange
Bitcoin,1,8356.50791014,0.0228312,0.154776,4.90181
Ethereum,2,184.165391555,0.0335003,1.17126,6.09495
XRP,3,0.29151636728,0.798618,5.46661,9.35654
Tether,4,1.00512438862,0.024062,0.237103,-0.147452
Bitcoin Cash,5,227.064905878,0.107421,0.535271,0.656429
Litecoin,6,57.1743477724,0.119683,1.58393,3.14961
EOS,7,3.16285118151,0.0847974,1.99654,5.75817
Binance Coin,8,18.2722745707,-0.000614104,3.59668,18.6908
Bitcoin SV,9,87.9039359376,0.207405,-0.992121,6.47612
Stellar,10,0.063013862753,0.225286,3.17755,5.25129
TRON,11,0.0166953025828,0.0989783,5.17893,9.73243
Cardano,12,0.0419164756447,-0.100866,2.97544,5.99203
UNUS SED LEO,13,0.974567362572,-0.305706,-2.34716,1.53038
Monero,14,53.6090888081,0.281171,0.242748,-3.34933
Chainlink,15,2.62366283255,-0.592897,1.08513,18.9699
Huobi Token,16,3.4536524901,-0.0164099,1.26685,12.6434
IOTA,17,0.281403122119,0.299986,3.48416,3.25814
Dash,18,71.2792176087,-0.504906,-0.157499,1.61611
Tezos,19,0.920059050375,0.595468,3.1328,3.58381
Cosmos,20,3.043814729,0.972428,6.27266,15.4521
Ethereum Classic,21,4.82537495559,0.742535,2.02527,6.01944
NEO,22,7.39901970676,-0.0174046,1.1862,1.93089
Maker,23,506.178083593,0.387717,0.536574,16.5033
USD Coin,24,1.00343049684,-0.0170946,0.174369,-0.389037
Crypto.com Coin,25,0.0347415650422,-0.106373,0.287337,-0.14687
NEM,26,0.0391866426879,-0.127653,-0.908855,-0.440163
Ontology,27,0.640886592015,-0.657158,1.06132,4.55004
Dogecoin,28,0.00256658416105,3.18358,5.31599,10.1875
Zcash,29,37.2305997888,-0.144229,1.63398,1.55518
Basic Attention Token,30,0.206004382656,-0.366104,4.25345,6.66916
Paxos Standard,31,1.00402610426,0.0333927,0.295218,-0.196878
HedgeTrade,32,0.78699575528,-0.358803,0.00306222,2.03816
VeChain,33,0.00359815364614,0.0642873,-1.43974,7.02659
TrueUSD,34,1.00393093496,0.00015687,0.264581,-0.143011
0x,35,0.294074620286,-1.63588,8.7672,37.871
Qtum,36,1.79921810973,0.016434,0.806192,4.68672
Decred,37,15.994597913,0.00762304,-1.70759,-5.25682
Ravencoin,38,0.0356927266219,-0.418817,-4.86908,15.1619
V Systems,39,0.0794507156248,0.976023,3.3016,3.48581
ZB,40,0.300065799763,0.0499896,0.215883,1.56117
Bitcoin Gold,41,7.82487471281,-0.391305,1.46563,-0.451657
Holo,42,0.000808567732122,0.559311,-0.251144,16.7628
ABBC Coin,43,0.221038868078,0.150307,1.31297,15.9638
EDUCare,44,0.140637855537,0.00063486,-2.09966,-11.7575
Swipe,45,1.93280411559,0.253772,3.13412,3.10571
OmiseGO,46,0.823957286585,-0.421909,-1.40228,-6.52989
Algorand,47,0.260425366204,0.601578,0.238743,21.902
DigiByte,48,0.00865566821247,-0.193795,0.0746223,18.7186
Centrality,49,0.129187066931,1.65619,19.3739,43.078
Nano,50,0.77716819874,-0.346805,0.261218,6.62596
KuCoin Shares,51,1.12798855642,-0.147309,-0.194077,5.67777
Lisk,52,0.815997556831,0.614913,-0.250234,-5.58956
Siacoin,53,0.00226711967654,-0.206652,-4.84907,40.1795
BitTorrent,54,0.00044186394336,-0.462043,-0.906064,5.35693
Bitcoin Diamond,55,0.493897002872,0.730162,1.58082,5.18105
Augur,56,8.25313206438,-0.14126,1.8959,0.331949
THETA,57,0.0999973845922,0.391377,10.1153,16.2404
Dai,58,1.00894548615,-0.048776,0.561081,-0.175382
ICON,59,0.170850253237,-0.150442,1.77925,2.08757
Waves,60,0.848326263196,0.231277,-0.326275,-5.12958
Bytecoin,61,0.000419163276062,0.167114,-3.74843,0.680598
MonaCoin,62,1.16291642003,0.303886,0.28246,-0.707615
BitShares,63,0.0272410939292,0.0826099,-1.32093,-3.21
Synthetix Network Token,64,0.538371420377,0.414564,7.51964,19.3461
Quant,65,5.99929700557,0.149567,3.73039,1.25372
Komodo,66,0.612430256921,0.498982,1.4442,1.03863
HyperCash,67,1.49182053183,0.408088,-3.05939,-5.3019
MaidSafeCoin,68,0.145138263931,-0.0164104,1.05791,-2.26859
Verge,69,0.00387329843783,0.995033,5.49762,18.7257
IOST,70,0.00492626288729,0.0866623,-1.49994,-3.54596
MCO,71,3.68414990777,-1.22543,1.34055,27.1901
Bytom,72,0.0579850914403,-0.107557,1.00773,2.66085
Crypterium,73,0.659393460265,4.67519,-0.409666,21.5399
Ardor,74,0.055596435026,-0.168156,-0.4906,0.732767
Energi,75,2.57984465751,2.06672,0.102468,-0.081762
Aeternity,76,0.183761231308,0.306588,3.22016,5.34841
Golem,77,0.0531962376696,0.512616,2.32755,9.62198
Aurora,78,0.00783203063814,0.898836,1.16225,4.032
Ren,79,0.0633781440861,0.565105,4.23047,47.3867
Nexo,80,0.0904481804288,-0.56391,-0.827712,0.689911
Zilliqa,81,0.00574933312341,0.168986,-1.18615,-0.763469
Enjin Coin,82,0.0638944309285,-0.0470265,-0.919712,5.00265
Pundi X,83,0.000211281277671,-0.0063006,-0.682766,-3.44091
RIF Token,84,0.0971355805336,-2.57034,-6.14246,-5.6974
Steem,85,0.137395718185,-0.334312,-0.905291,-2.62156
Zcoin,86,5.50321489921,0.474105,0.548545,-2.45792
Status,87,0.0129678570414,0.33607,2.29561,1.27925
Jewel,88,0.819959371423,-0.00130927,6.02315,205.351
Nash Exchange,89,1.20638952457,-0.0116704,5.23469,8.67767
aelf,90,0.0793107816155,-0.341339,2.07979,4.62388
Seele,91,0.0534936757633,-3.23964,-3.97149,-2.26889
Electroneum,92,0.00377179832593,0.0314429,0.691688,-4.36437
Stratis,93,0.363240900765,-0.03563,6.31878,7.95347
BitCapitalVendor,94,0.0404825589284,0.312874,-0.967891,9.03515
Newton,95,0.00298910511471,0.0599779,-0.436643,10.9252
STASIS EURO,96,1.10534570295,0.0195644,0.698792,0.814917
Factom,97,3.5258409262,-0.210879,1.37584,-5.66794
Matic Network,98,0.0154880624293,-3.45475,1.78697,47.099
Decentraland,99,0.0322954435018,0.543933,1.17516,14.0769
XMax,100,0.00196865714324,0.954997,1.84457,1.3763
