Coins,Rank,Price,1hourChange,1dayChange,7daysChange
Bitcoin,1,8199.34722701,-0.16864,2.23811,-2.35088
Ethereum,2,180.793488566,-0.444798,3.09819,0.265608
XRP,3,0.275230430888,-0.0296381,1.06615,7.64619
Bitcoin Cash,4,234.145733287,0.151817,2.56064,2.35321
Tether,5,1.00405736045,-0.141292,0.0843609,-0.163628
Litecoin,6,57.4116095692,-0.205847,2.49013,1.91804
EOS,7,3.16496047206,-0.0741388,4.74968,5.16868
Binance Coin,8,15.9028765896,-0.328577,2.12564,-0.906256
Bitcoin SV,9,84.2401896608,-0.0762916,1.30975,-2.66767
Stellar,10,0.0617018490964,-0.162065,2.29511,1.87165
TRON,11,0.0160455806366,0.147708,3.0104,11.4534
Cardano,12,0.0406559174044,-0.29649,0.53594,4.09748
Monero,13,56.0842533348,-0.285097,0.543406,-2.49248
UNUS SED LEO,14,0.95111452159,0.0588973,-0.878927,-8.69018
Chainlink,15,2.34282063373,1.10594,4.12216,29.6818
Huobi Token,16,3.1989569349,0.256327,3.11503,-0.287413
IOTA,17,0.275796317381,-0.266841,-0.645631,0.562551
Dash,18,72.6838654544,0.0593756,3.81937,1.5929
Tezos,19,0.90480293894,-0.0480163,0.524349,-4.09626
Cosmos,20,2.90292840154,0.364666,8.67077,13.957
Ethereum Classic,21,4.61959919961,-0.271941,0.839975,-2.10477
NEO,22,7.43310027291,-0.0594139,1.21162,-4.09099
USD Coin,23,1.00323633817,-0.0871763,-0.064919,0.0579395
Maker,24,452.386649361,-0.688853,3.17095,-0.0930761
Crypto.com Coin,25,0.0347192110274,-0.225538,-1.27397,-3.5438
NEM,26,0.0401032483693,-0.11373,1.1278,-2.12165
Ontology,27,0.630778932713,0.321772,1.90377,2.73067
Dogecoin,28,0.00233249099096,-0.175674,-0.331999,-4.66044
Zcash,29,37.1997931342,-0.30992,0.616674,-3.95385
Basic Attention Token,30,0.197005452999,0.166558,1.38974,16.0635
Paxos Standard,31,1.00290529995,-0.13358,0.0868681,-0.0695832
HedgeTrade,32,0.78307778416,-0.762921,1.80031,-5.01737
VeChain,33,0.00348264089473,0.0950639,2.92841,-1.00626
TrueUSD,34,1.00124823102,-0.131029,-0.0971783,-0.221572
Decred,35,16.9475325726,-0.055116,-0.300035,-3.8955
Qtum,36,1.78710392839,-0.0288884,2.73141,4.41289
0x,37,0.241076327338,2.33477,12.5253,16.35
Ravencoin,38,0.0315038334749,0.524295,-0.802962,3.25128
V Systems,39,0.078284111138,0.614702,4.15587,-5.97686
Bitcoin Gold,40,8.03801561785,-0.129585,1.31551,1.71739
ZB,41,0.299592444178,-0.104373,1.14717,-1.26758
EDUCare,42,0.158359619037,-0.308966,-0.671246,-2.20963
OmiseGO,43,0.898591987924,0.104015,1.86469,8.33755
ABBC Coin,44,0.222937799422,0.074991,17.4221,0.248509
Holo,45,0.000709903667467,-0.0925784,1.47981,-2.27754
Lisk,46,0.910515132849,0.143933,2.58077,5.81047
Nano,47,0.761015681627,0.078646,4.03261,1.09213
KuCoin Shares,48,1.10264058103,-0.00357371,2.85699,-4.69583
DigiByte,49,0.00775518864372,-0.0107149,6.26565,1.88383
Augur,50,8.46821375843,-0.116556,2.7487,-1.32726
BitTorrent,51,0.000435554898894,-0.221801,2.00899,4.31673
Waves,52,0.914949607292,-0.167856,1.90708,7.70021
Bitcoin Diamond,53,0.483965478122,0.103524,2.66819,-1.72327
Algorand,54,0.218315997212,0.138823,0.756594,-12.2785
ICON,55,0.171930151785,0.0898371,1.92375,-2.973
Dai,56,0.998490559363,-0.126134,-0.786321,-0.432672
Quant,57,6.74034639249,1.09741,11.2648,6.56412
THETA,58,0.0920088916134,0.577301,5.95594,8.05301
Karatgold Coin,59,0.0210500754636,0.470412,-6.83204,-16.9417
BitShares,60,0.0282740646959,-0.478643,-0.372208,-2.61449
MonaCoin,61,1.17726406177,-0.0798314,0.441519,1.02436
Bytecoin,62,0.000414683170614,-5.84706,1.31006,-1.16476
Komodo,63,0.614317776012,0.245228,-1.70393,4.1295
Centrality,64,0.0876082331935,-0.504903,-2.3181,287.637
HyperCash,65,1.5981036846,0.784205,0.644591,-4.15721
MaidSafeCoin,66,0.15054563938,-0.519497,1.95154,-5.65397
Siacoin,67,0.00161788486292,-1.36724,-0.988047,0.925069
Synthetix Network Token,68,0.460881505666,-0.625093,3.10713,1.43809
Verge,69,0.00378332394946,-0.75432,13.8765,13.864
IOST,70,0.00500816066948,-0.144209,-2.6158,3.35719
Energi,71,2.80759901912,-0.314206,4.2603,-9.57887
Ardor,72,0.058332405162,1.6406,4.99943,9.71887
Bytom,73,0.0571442597327,-0.204611,0.15874,-1.55598
Aurora,74,0.00811834118447,2.19282,7.82675,14.6474
Steem,75,0.151097654317,3.33577,5.78543,11.9761
Nexo,76,0.092254310606,-0.333432,1.64164,10.5912
RIF Token,77,0.105533672833,-0.498259,1.26267,-8.03182
Pundi X,78,0.00021857094222,0.867749,-0.573088,-12.4741
Golem,79,0.0526381618789,0.736005,7.93192,13.0865
Zilliqa,80,0.00588760910549,-4.77927,0.827397,14.5838
Crypterium,81,0.584753589775,-0.266111,4.29882,-5.77791
Enjin Coin,82,0.0636179364588,0.611248,2.70247,8.26734
Aeternity,83,0.172443461834,-0.252138,-2.30154,8.46756
Zcoin,84,5.63280864837,-0.2182,-0.285197,8.12643
MCO,85,2.98660357537,-0.64184,2.38124,1.53748
Status,86,0.0132945791294,0.54265,2.71178,4.20221
aelf,87,0.0804148510023,-0.10274,5.72159,6.32053
Electroneum,88,0.00408402201259,0.192437,3.57211,0.0579847
Seele,89,0.0565013123377,-0.296429,2.09097,17.5991
Metaverse ETP,90,0.495821392566,-0.60226,10.4655,-15.3618
Nash Exchange,91,1.03430754325,-3.0476,-6.76723,-20.4247
Ren,92,0.0464585928802,-0.598329,5.28192,16.1285
Stratis,93,0.365240017569,2.98678,6.77963,24.925
Newton,94,0.00293768384971,-0.174243,8.02704,2.82498
XMax,95,0.00207143040638,-1.06771,4.44269,16.0276
STASIS EURO,96,1.09078272288,-0.268598,-0.58488,-0.467322
Factom,97,3.48850884785,1.23819,-7.02226,4.66773
Decentraland,98,0.03259873322,-1.49176,14.0506,19.5144
BitCapitalVendor,99,0.0385357173884,2.18001,3.07517,-18.3599
Beam,100,0.828952860193,-0.575281,0.115427,-9.02229
