Coins,Rank,Price,1hourChange,1dayChange,7daysChange
Bitcoin,1,8295.4652817,-0.362412,-0.22978,0.881028
Ethereum,2,182.922297325,-0.700649,-0.25937,1.32486
XRP,3,0.290559156803,-0.859829,0.182204,5.58452
Tether,4,1.00408528758,0.0827769,-0.085543,-0.0675203
Bitcoin Cash,5,224.840283846,-0.638216,-0.550794,-2.91748
Litecoin,6,55.6282370707,-0.546819,-2.12397,-3.04758
Binance Coin,7,18.9323758978,0.114512,4.02483,18.4343
EOS,8,3.10558652818,-0.397023,-1.27675,-1.80809
Bitcoin SV,9,88.569560096,-0.367177,2.42562,5.10523
Stellar,10,0.0645639130807,-0.0636284,2.302,4.82284
TRON,11,0.0164340780146,-0.00206435,-0.68846,-0.23553
Cardano,12,0.0410107923774,-0.393459,-1.30827,0.14081
UNUS SED LEO,13,1.00182538495,0.0620057,2.77039,4.89146
Monero,14,53.3852579498,-0.312934,0.703438,-4.29951
Chainlink,15,2.53191481576,-0.657488,-0.726122,1.23133
Huobi Token,16,3.61804151386,0.431487,-0.101933,13.9985
IOTA,17,0.280461504735,-0.856569,-0.630448,2.00304
Dash,18,72.5859821244,-0.151674,2.24171,0.316657
Tezos,19,0.925603247282,0.464492,0.270711,2.38564
Cosmos,20,3.02491851579,-0.522271,0.505112,3.92547
Ethereum Classic,21,4.65230035176,-0.566505,-3.10779,0.461873
NEO,22,7.45385018837,-0.770873,0.989742,-0.166941
Maker,23,504.020494686,0.348396,0.165679,11.0952
USD Coin,24,1.00317538246,0.118588,-0.117282,-0.0965925
Crypto.com Coin,25,0.0345230737201,-0.166759,0.453226,-1.30292
NEM,26,0.0385629246478,-0.973321,-1.01027,-4.52803
Ontology,27,0.641859744428,-0.859026,1.05102,1.74146
Basic Attention Token,28,0.229445430197,-0.60103,12.0791,13.2554
Dogecoin,29,0.00253227929443,-0.805164,0.225043,8.43904
Zcash,30,37.0108287109,0.106627,0.277401,-0.400461
Paxos Standard,31,1.00136832392,-0.0504129,-0.283742,-0.259829
HedgeTrade,32,0.774592497831,-0.718872,0.271948,-1.56918
0x,33,0.330582813153,0.501339,4.57697,36.005
VeChain,34,0.00351545008216,-0.382378,-0.970905,-0.588596
TrueUSD,35,1.00496519513,0.297906,0.209824,0.257852
Qtum,36,1.79364227468,-0.457739,-0.195011,0.0587837
Decred,37,15.8520311167,-0.371792,-0.631388,-6.84679
Ravencoin,38,0.0350503634538,-0.367957,-2.06754,11.149
Bitcoin Gold,39,8.30952598821,2.00001,5.95401,3.28136
ZB,40,0.305224902526,1.66939,-0.190778,1.88053
V Systems,41,0.0759506831391,0.421338,-2.17289,-3.78122
EDUCare,42,0.161708331664,0.107771,-2.35755,1.84646
Holo,43,0.000800271077122,-0.133023,-0.269329,12.7102
ABBC Coin,44,0.218529028326,-0.365148,-0.310696,-1.54534
Swipe,45,1.91265575036,-0.392629,-0.0357732,6.8297
OmiseGO,46,0.813855392176,-0.104783,-1.24013,-9.20318
Nano,47,0.820107604857,1.79327,4.30715,6.57629
Algorand,48,0.260785476323,-0.619518,0.184422,19.7616
DigiByte,49,0.00840140191436,-0.741337,-2.5324,7.73952
KuCoin Shares,50,1.12386708998,-0.266278,0.00125636,1.49133
Lisk,51,0.812124112942,-0.18484,0.297572,-11.4073
Siacoin,52,0.00222767566784,-2.50975,-5.49613,28.1147
BitTorrent,53,0.000437886778487,-0.280111,-0.452584,0.103996
Augur,54,8.4421328904,0.609105,3.24065,-0.071612
Bitcoin Diamond,55,0.49040749166,-3.17075,0.317143,0.972694
Waves,56,0.890871167225,-0.528772,2.97391,-2.3088
ICON,57,0.172043421967,0.0413465,-0.673861,-1.65374
Dai,58,1.00292382377,0.170253,-0.139679,0.167623
Centrality,59,0.101779255146,-4.80376,-15.8839,10.0744
THETA,60,0.0940263663659,0.906845,-1.39971,1.64535
Bytecoin,61,0.000415118328031,1.85811,0.133056,-2.69111
MonaCoin,62,1.13274223474,-0.237506,-1.05845,-3.50697
BitShares,63,0.0267871032467,0.245815,-1.47202,-6.33598
Komodo,64,0.601565613463,-0.223848,-0.430703,-3.46484
Synthetix Network Token,65,0.505937635719,-0.588297,-4.26836,10.5121
Quant,66,5.57854237185,-0.0411449,-3.93605,-16.3916
HyperCash,67,1.49725570938,0.928208,0.913664,-6.81621
MaidSafeCoin,68,0.1360834127,-1.51036,1.01485,-9.78903
Verge,69,0.00383403604089,-0.745397,-0.442627,1.12939
IOST,70,0.00489867182267,-0.241315,-0.305565,-2.54418
Bytom,71,0.0576917483791,-0.209844,0.194897,-0.276426
Aeternity,72,0.199428680384,2.81176,5.59117,14.4637
MCO,73,3.56255195883,-0.323337,0.0119033,19.2179
Ardor,74,0.0547165087444,-0.347359,-0.368655,-6.02076
Aurora,75,0.0080215937787,2.0315,0.703028,1.15914
Nexo,76,0.0936424769046,-0.163202,3.21503,-0.119977
Ren,77,0.0643877290942,0.741859,-1.08255,36.2697
Energi,78,2.35266136234,0.309678,-6.02302,-15.9952
Golem,79,0.0510831236439,-0.566067,-2.67128,-2.55302
Zilliqa,80,0.0056971012043,0.222288,-0.437807,-7.22333
Crypterium,81,0.582487231275,0.42079,-0.237019,-2.67772
Enjin Coin,82,0.0624665164182,0.597479,-0.327132,-2.75982
Pundi X,83,0.000205409236217,0.428269,-0.80239,-5.84323
Steem,84,0.134933803155,0.0756935,-1.79557,-10.2781
Nash Exchange,85,1.29160797503,1.2821,4.95202,19.069
Zcoin,86,5.29758000132,-0.668974,-2.51887,-5.33033
Status,87,0.0128223652193,-0.143379,-0.634606,-5.25599
aelf,88,0.0801510263182,-0.538516,-0.695796,-0.603213
RIF Token,89,0.084879560767,0.176069,-9.16891,-19.932
Seele,90,0.054096057112,-1.40873,-0.0359898,-5.06032
Stratis,91,0.372253049254,-0.200359,0.420188,1.90117
Electroneum,92,0.00375668387505,-0.237405,0.0683273,-7.91872
Newton,93,0.0030422238735,-0.598065,0.348783,3.66679
BitCapitalVendor,94,0.0403417943409,0.425518,-2.09168,1.85468
GXChain,95,0.547960835672,-0.358578,18.6857,29.3747
STASIS EURO,96,1.09895946096,-0.250317,-0.344228,0.508171
Factom,97,3.55464899004,-1.39829,0.661898,5.21294
Decentraland,98,0.0322917820512,-0.225975,-1.56358,0.0425009
Kyber Network,99,0.201584241952,0.958822,2.31547,2.44229
XMax,100,0.00196652515297,-0.707673,-1.23035,-4.35063
