Coins,Rank,Price,1hourChange,1dayChange,7daysChange
Bitcoin,1,9717.6733464,-0.340996,-2.43822,8.69996
Ethereum,2,211.33842057,-0.745955,-1.3885,-1.54469
XRP,3,0.21918853283,-0.624739,-0.56137,-1.8068
Tether,4,0.999056701415,-0.0543079,-0.479121,-0.467922
Bitcoin Cash,5,267.059526176,-0.794776,1.73055,2.98959
Bitcoin SV,6,212.977981583,0.0432347,0.33532,0.261692
Litecoin,7,47.8098144514,-0.539498,-0.544019,-1.93462
Binance Coin,8,17.0861063575,-0.579634,-1.47551,-2.51781
EOS,9,2.77294943804,-0.886882,0.0164494,-4.94052
Tezos,10,2.86541503315,-0.923925,2.88725,1.06201
Stellar,11,0.0719730433937,-0.552582,-2.01318,-3.65296
Chainlink,12,4.07936300405,-0.419362,6.89081,6.23834
Cardano,13,0.0521400681377,-0.369446,-0.853078,2.49691
Crypto.com Coin,14,0.0674344832338,-0.268585,-2.00706,13.14
Monero,15,63.677209879,-0.291075,-1.1747,-1.19864
TRON,16,0.0162534935043,-0.578009,-1.10909,-0.151066
UNUS SED LEO,17,1.06252924416,-0.191597,-0.0202115,-0.188308
Huobi Token,18,4.15797990023,-0.327296,-1.03128,-2.34897
Ethereum Classic,19,7.09158556127,-0.329463,-1.84476,-2.24251
Neo,20,11.1788484037,-0.535362,7.11711,21.4776
Dash,21,80.0681805321,-0.634177,0.392416,-3.30257
USD Coin,22,1.00083920487,-0.0215354,-0.548176,-0.0691188
HedgeTrade,23,2.30041715198,-0.883683,-2.9894,3.67964
IOTA,24,0.20102665595,-0.940945,2.80174,6.11802
Cosmos,25,2.78785921569,-0.474643,-1.42777,-2.93615
Zcash,26,45.3480534022,-0.628374,-1.13405,-1.85962
NEM,27,0.0410278237442,-1.30648,-2.38614,-4.22351
Maker,28,343.238514042,0.541506,0.823015,-4.30796
Ontology,29,0.500496181022,-0.868142,0.0332303,-0.689089
Dogecoin,30,0.00259921188666,0.0531512,-0.990928,3.38373
Basic Attention Token,31,0.221643404189,-0.627576,-1.71482,15.9771
OKB,32,5.3319631099,-0.262592,-1.45769,-3.61849
DigiByte,33,0.0223019848197,-2.47645,9.65414,20.0476
FTX Token,34,3.05736576378,-0.553746,-2.97907,-4.21382
0x,35,0.4229546118,-3.73153,0.234873,97.2447
VeChain,36,0.00459860605168,-0.582761,-3.9584,2.03567
Paxos Standard,37,0.996570939125,-0.159922,-0.497992,-0.477407
Binance USD,38,0.996928907042,-0.0483221,-0.40303,-0.353685
Bitcoin Gold,39,9.8568243301,-1.29377,-1.57525,-3.07241
Decred,40,14.9696902392,-0.747989,0.640207,3.94273
Synthetix Network Token,41,0.90530151613,-0.0288131,-0.878051,13.431
Hyperion,42,0.515943112778,-0.694969,-1.33102,43.2408
ICON,43,0.296555755313,-0.0123942,-3.92422,3.83867
Hedera Hashgraph,44,0.0393646658628,-0.273968,-2.26177,-9.27461
Qtum,45,1.62225665594,-0.698227,-0.328127,-0.901642
Algorand,46,0.221279741253,0.505339,1.18579,0.861346
Lisk,47,1.20541526552,-0.320075,-1.99398,-4.58659
Augur,48,13.149543907,-0.213775,-1.04694,18.3783
THETA,49,0.161203340175,-0.488739,-2.97662,18.1751
TrueUSD,50,0.993513037098,-0.41464,-0.839811,-0.837472
Ravencoin,51,0.0213886730201,-0.510023,-3.81689,2.47257
Kyber Network,52,0.689678149822,1.63994,4.54025,0.915884
Enjin Coin,53,0.147795511717,-0.536509,0.915529,3.63828
Multi-collateral DAI,54,1.00393395184,-0.0129309,-0.369137,0.111955
ZB Token,55,0.23943632313,0.302267,-1.04042,-4.52324
Bitcoin Diamond,56,0.58449450446,-0.471595,-0.560905,-1.02232
Waves,57,1.05091467147,-0.386855,-0.737505,-2.95053
OmiseGO,58,0.758482304696,-0.622333,-3.08154,0.998056
Status,59,0.0294482202698,1.18562,-0.232333,37.6444
Hive,60,0.35442704486,-0.989897,-3.28742,0.804471
ABBC Coin,61,0.180037010576,-4.88091,5.43721,63.0296
Energi,62,3.2952357977,-0.386126,-1.436,-6.16702
Siacoin,63,0.00222742924885,0.15951,-0.966385,1.74939
MonaCoin,64,1.4058049348,-0.346783,0.755623,-1.02609
MCO,65,5.77142231821,-0.128444,-1.66324,6.98991
DxChain Token,66,0.00181169622119,-0.454458,-1.15768,0.0408216
Nano,67,0.667580143714,-0.261003,-4.39075,4.1341
Holo,68,0.00052090135276,-0.920336,-4.45906,35.9381
Aave,69,0.0648241180632,-0.453853,-3.18534,50.1221
DigixDAO,70,40.3822774543,-0.94266,-1.70543,-1.61512
Numeraire,71,33.0632428223,0.57205,1.53362,49.1494
Nervos Network,72,0.00443462443525,-0.247875,-0.142829,-6.44356
KuCoin Shares,73,0.929734080527,-0.510519,-0.555993,-2.29445
Zilliqa,74,0.0071179466527,0.281864,-2.46961,15.0635
Komodo,75,0.589788204029,-0.82704,-4.2533,10.6943
Steem,76,0.190402411739,-0.68605,4.66366,2.21048
Bytom,77,0.0689227309774,-0.0727368,0.0322777,-3.77892
Ren,78,0.0767231417378,0.0192673,10.5082,14.4405
BitTorrent,79,0.000287552139916,-0.760949,-2.80849,2.16746
Matic Network,80,0.0176419667184,-0.904559,-2.7076,6.72955
Nexo,81,0.106723477238,0.141681,-1.48326,-4.10442
Verge,82,0.00358350909916,-0.561622,-3.90955,14.9049
BitShares,83,0.0209992904802,-0.258459,2.77799,0.835956
Terra,84,0.191838929647,-0.203376,-1.25074,-1.43162
Quant,85,4.47487479593,-2.67545,-6.36388,-18.0632
Seele-N,86,0.0765746993962,-0.17981,1.39768,-6.22
Streamr,87,0.0784776777115,3.53866,2.28881,5.07563
Decentraland,88,0.0378212314933,-0.250799,-5.31774,2.5677
v.systems,89,0.0254806752014,-0.609887,0.817479,-2.1673
Horizen,90,5.55428684587,-0.369194,-0.295136,-8.81949
HyperCash,91,1.11060340481,-0.563321,-1.94503,-4.40812
MaidSafeCoin,92,0.108236361296,0.133623,-7.61931,3.26029
Crypterium,93,0.482431514156,1.2563,9.86375,102.352
ReddCoin,94,0.00164204371531,4.71166,4.07815,62.5053
Ripio Credit Network,95,0.0927617787109,0.628042,-15.8495,30.8731
IOST,96,0.00376052291532,-0.645796,-1.91354,-3.41672
Golem,97,0.045309568355,-0.992121,-2.27891,-1.30045
Blockstack,98,0.110811403558,-0.103734,-1.09584,-1.68635
Chiliz,99,0.00959809764227,-0.279012,-4.28909,22.7136
PAX Gold,100,1711.12695221,-0.315029,-0.932356,-0.255699
