Coins,Rank,Price,1hourChange,1dayChange,7daysChange
Bitcoin,1,7211.87098267,0.0118438,0.905965,4.95633
Ethereum,2,183.999800883,0.0581842,5.84779,16.2455
XRP,3,0.192777616116,-0.172115,0.910818,1.19649
Tether,4,1.00798761381,-0.0162533,0.0452915,0.605446
Bitcoin Cash,5,241.091482504,-0.101788,2.08896,3.89446
Bitcoin SV,6,201.191949301,0.254019,3.1002,8.09941
Litecoin,7,43.4913464232,-0.0253814,1.5293,2.4863
Binance Coin,8,16.3422100396,0.135763,1.99303,16.7009
EOS,9,2.69044357861,-0.0726287,1.06233,7.46927
Tezos,10,2.30789144613,-0.0534485,7.63093,17.8658
Chainlink,11,3.68464409972,0.225923,2.899,12.7609
UNUS SED LEO,12,1.04441355571,0.0828097,0.298832,2.52384
Stellar,13,0.0500221230296,0.239192,1.23087,1.49929
Monero,14,57.6582295246,-0.0383016,0.973084,8.18506
Cardano,15,0.036282932414,0.261398,3.10707,8.4079
TRON,16,0.0132383656578,-0.0304029,1.41574,5.47853
Huobi Token,17,3.94699006467,0.810578,2.66878,6.13525
Dash,18,79.5885444666,-0.11607,1.21769,7.12703
Crypto.com Coin,19,0.0517622249476,0.243125,0.59174,4.10935
USD Coin,20,1.00628432287,-0.0123572,0.0460896,0.685423
Ethereum Classic,21,5.56921289565,0.202101,1.54547,5.52742
HedgeTrade,22,1.97657071378,-1.16362,2.08528,12.6699
Neo,23,7.74388355925,-0.175192,1.12039,5.87784
Cosmos,24,2.48590772481,0.0639234,2.83626,8.30777
IOTA,25,0.160591175046,0.359569,0.818074,0.548441
Zcash,26,43.5731356303,-0.279319,5.29041,20.01
NEM,27,0.0370929663772,-0.691943,-2.2853,0.768683
Maker,28,325.192300402,-0.548245,7.12406,4.15235
OKB,29,4.81356498407,0.0232305,1.42794,6.01828
Ontology,30,0.419108277607,0.388106,0.620072,4.1046
FTX Token,31,2.77533147803,0.0907852,0.876407,9.4008
Dogecoin,32,0.00205707495981,0.217038,1.81764,4.37013
Basic Attention Token,33,0.170069105475,0.33822,1.06098,5.35097
Paxos Standard,34,1.00642253341,-0.0409595,0.0855353,0.676602
VeChain,35,0.00394274283641,0.148251,1.87684,8.29904
Binance USD,36,1.00643994093,-0.0348513,0.0710086,0.652423
Bitcoin Gold,37,9.84238903193,-0.143569,-0.671239,-1.88537
Qtum,38,1.41529528398,0.14386,0.488142,4.03623
Decred,39,12.6689617272,0.201823,1.68623,5.67585
Synthetix Network Token,40,0.783723058265,-0.40641,5.97101,15.9954
TrueUSD,41,1.00614481735,0.0441462,0.0346819,0.71096
Algorand,42,0.192869146135,-0.210579,-0.19936,8.44
Hedera Hashgraph,43,0.0334420400091,0.411904,-1.28934,1.54238
ICON,44,0.242428134826,-0.494968,2.74369,5.30386
Lisk,45,1.05084660648,0.384499,-2.02789,8.12229
0x,46,0.178091892788,-0.144827,1.2691,4.90115
ZB Token,47,0.242023892263,0.488538,1.27574,4.2678
Augur,48,10.1338947259,0.326334,-0.253652,2.49774
Waves,49,1.03404665631,0.192564,1.74382,3.83829
DigiByte,50,0.00801447980541,0.557672,11.2702,31.7221
Ravencoin,51,0.0168760421777,-0.416696,0.0973892,2.47399
Bitcoin Diamond,52,0.534539572857,-0.400011,0.0315489,2.32525
Kyber Network,53,0.486277960388,0.041123,0.695833,0.940409
Enjin Coin,54,0.106948753572,2.07778,11.5295,22.627
Multi-collateral DAI,55,1.00794805354,-0.0728984,-1.34186,0.437824
OmiseGO,56,0.593142437323,0.508772,2.55786,5.25631
MCO,57,5.19811668967,0.157751,-0.608597,2.20211
Nano,58,0.597933054468,0.897786,4.51159,10.2875
MonaCoin,59,1.19384821172,-0.222801,0.336522,-2.22326
KuCoin Shares,60,0.948516744458,-0.204679,0.682807,2.66039
DxChain Token,61,0.00152936774379,-0.206618,-0.814452,13.6398
Nervos Network,62,0.0052178934629,0.0193097,1.99145,-1.9739
THETA,63,0.0819684439348,-0.154936,4.51937,3.53388
Komodo,64,0.597277442414,0.82598,-1.96996,52.1284
DigixDAO,65,35.0463709344,-0.250815,5.62457,16.2527
Energi,66,2.42617380244,-0.05818,1.54491,12.0832
Quant,67,5.43290912266,0.293538,3.18501,24.7215
Terra,68,0.224660933204,0.127848,4.5491,29.219
ABBC Coin,69,0.114943375779,1.04801,-2.51269,20.366
Nexo,70,0.109386403786,0.00300248,-1.02392,0.0653476
Siacoin,71,0.00142947860633,1.14882,3.69858,10.113
Bytom,72,0.0590815478541,0.00128797,0.547592,3.87035
Status,73,0.0166959759812,-0.177774,0.562887,2.36235
Steem,74,0.153283991473,0.412373,-0.556715,-0.218732
Holo,75,0.000343091059675,-0.060981,0.236434,1.61945
Seele,76,0.0778799074337,0.126519,-0.308134,9.0387
Ren,77,0.0605202761836,0.156948,0.408694,19.562
Numeraire,78,20.5752569165,0.990162,10.5311,21.4095
Horizen,79,5.58636348522,-0.0598475,1.13019,4.88423
BitTorrent,80,0.000232985963677,-0.0858702,0.576492,2.66664
v.systems,81,0.0249275561542,-0.170388,-0.702878,-0.281277
BitShares,82,0.0177397011557,0.356258,0.634172,3.88543
HyperCash,83,1.05303001469,0.276391,1.20594,1.42701
Bytecoin,84,0.000253827914368,-2.50892,-3.13484,0.576243
Verge,85,0.00286337274435,0.481605,4.8821,7.71436
Zilliqa,86,0.00436082558495,0.316753,1.48381,2.83393
Hyperion,87,0.130474459019,0.0915564,-6.14898,38.0033
IOST,88,0.00336179919978,0.110287,-1.35274,6.50702
Decentraland,89,0.0293291943309,0.174561,1.59312,10.1957
Swipe,90,0.622350116212,-0.393951,-5.04878,-8.36635
Digitex Futures,91,0.0460143522374,-0.0782877,0.738316,4.86408
Blockstack,92,0.0937641915615,-0.111007,1.30965,1.40452
Golem,93,0.0377806963993,-0.82315,-2.80948,-2.29658
Zcoin,94,3.70719476428,-0.32334,3.24975,9.39853
Matic Network,95,0.0132605254969,0.0933726,2.38854,8.87891
Ardor,96,0.0357869113733,0.663288,3.19645,6.8495
STASIS EURO,97,1.0957072554,-0.000268061,-0.282568,1.51494
aelf,98,0.0639138413088,-0.0949495,1.39548,3.11018
Insolar,99,0.864990039607,-0.0468108,-2.3577,-11.988
PAX Gold,100,1692.4110733,-0.341703,-1.37872,-0.319136
