Coins,Rank,Price,1hourChange,1dayChange,7daysChange
Bitcoin,1,7728.71900256,-0.0971304,1.03058,9.26812
Ethereum,2,195.403634329,-0.290616,-1.14538,8.87654
XRP,3,0.197098586214,-0.342339,0.507614,3.83017
Tether,4,1.00549559214,-0.0611775,0.330357,-0.0740121
Bitcoin Cash,5,238.587295593,-1.00244,-2.44508,3.5818
Bitcoin SV,6,193.353615176,-0.702595,-1.92829,0.546491
Litecoin,7,44.2306628625,-0.683156,-1.67752,5.13961
Binance Coin,8,16.2994201298,-0.195835,-0.3197,2.72199
EOS,9,2.7387159973,-0.316513,-0.203926,4.4998
Tezos,10,2.62611715823,-1.42201,-6.44903,17.3325
Stellar,11,0.0628085741312,0.106095,1.17687,22.1062
Chainlink,12,3.59580532428,-0.337323,-4.8139,-1.45286
Cardano,13,0.0455300217501,-0.672233,2.60924,27.4428
Monero,14,61.6315475904,-0.505979,0.520142,8.42467
UNUS SED LEO,15,1.05240356678,-0.171844,0.339298,1.16221
TRON,16,0.0144986041127,-0.336147,2.45909,12.4362
Huobi Token,17,4.06068130844,0.143144,0.798464,5.72363
Crypto.com Coin,18,0.0556706032191,-0.504658,1.10167,10.606
Dash,19,81.8721930127,-0.558174,-3.98283,3.84113
USD Coin,20,1.00253158268,-0.0909106,0.166072,-0.198756
Ethereum Classic,21,6.08150714586,-0.547014,0.877166,11.1942
Neo,22,8.33694925719,-1.21416,-2.43565,10.4667
HedgeTrade,23,1.98487203985,-0.420539,1.1088,3.45238
Cosmos,24,2.72199581731,-1.4417,-4.79501,14.6627
IOTA,25,0.171152946441,-1.15613,-3.11639,5.67558
Zcash,26,43.4762571737,-0.950334,-3.17698,-5.56212
NEM,27,0.0395906890653,-0.133475,0.722607,7.62878
Maker,28,343.972281696,-0.104696,-0.485196,7.57469
Ontology,29,0.464459758761,-1.01825,-4.82311,12.8384
OKB,30,4.88214185142,-0.449,-0.801985,5.17037
Dogecoin,31,0.00234514024005,-0.756261,3.91005,16.0959
FTX Token,32,2.84490302036,-0.325727,-0.341946,5.10478
Basic Attention Token,33,0.180652364256,-0.768696,-3.182,9.19041
Paxos Standard,34,1.00442332526,-0.0644721,0.410401,-0.0570407
VeChain,35,0.00434113298206,-1.27445,-0.748705,12.5037
Hive,36,0.700348798974,2.44968,-18.4772,480.934
Binance USD,37,1.00405561519,-0.103004,0.36369,-0.119737
Bitcoin Gold,38,9.35745558735,-0.804615,-1.24573,-0.831921
ICON,39,0.28112328442,-1.6137,-5.91821,19.2509
DigiByte,40,0.0115638614115,-5.3282,-27.7739,46.8854
Algorand,41,0.212727771171,0.538998,-6.7113,14.4974
Decred,42,13.0817012611,-0.422737,1.75435,6.09802
Qtum,43,1.48427188448,-1.03184,-3.58534,7.78891
Lisk,44,1.12841399582,-0.571334,7.2008,9.35513
Hedera Hashgraph,45,0.034065666034,0.117316,-0.976102,4.62621
0x,46,0.203555066075,-0.758643,6.63938,18.4586
TrueUSD,47,1.00403028833,-0.0863596,0.311579,-0.0711661
Synthetix Network Token,48,0.709325816875,-0.472262,2.17461,-2.54964
Kyber Network,49,0.691238447845,4.1367,4.06392,46.8877
Ravencoin,50,0.0191811414733,0.406261,-5.44107,13.126
ZB Token,51,0.245726477127,0.434442,0.554435,3.51534
Augur,52,10.3270564854,-0.0437058,-1.83346,3.09081
Enjin Coin,53,0.133912235464,-0.842838,-5.62748,31.3419
Waves,54,1.06311902508,-0.99271,2.96181,5.52248
Bitcoin Diamond,55,0.534785922363,-1.33646,-1.77374,2.25001
Multi-collateral DAI,56,0.9970628428,-0.110016,-1.45241,-1.05049
OmiseGO,57,0.664676535987,-1.1562,1.60763,16.3268
Energi,58,3.22318060487,-1.46451,1.08378,36.2731
THETA,59,0.104699763295,-0.286545,-6.60647,23.1284
DxChain Token,60,0.00164549650382,-3.62144,4.32531,11.8227
Steem,61,0.215855756196,-1.90102,22.5113,37.9752
MCO,62,5.08486080313,-0.117798,-0.520062,1.68332
MonaCoin,63,1.20892344784,-0.516668,-0.17583,2.70543
Nano,64,0.591142152795,-0.416486,-1.34489,4.2805
KuCoin Shares,65,0.955441115621,-0.440135,-0.133274,2.50174
DigixDAO,66,37.6510218284,0.424026,0.202582,9.75478
Siacoin,67,0.0017223151772,0.838836,11.8787,25.2753
Nervos Network,68,0.00491406824725,-0.750152,-1.74174,0.693625
Komodo,69,0.558865181224,-1.11611,-1.50141,-1.89361
Bytom,70,0.0660558905597,-0.883739,-6.87184,15.7244
Status,71,0.0188902724663,0.110168,-0.499491,9.1387
ABBC Coin,72,0.11743239549,0.0704535,-0.366271,3.74816
Quant,73,5.02114972093,-0.204542,-4.98005,-14.6652
Seele,74,0.0842667080626,-0.905001,-3.38689,10.5863
Holo,75,0.000352811604164,-0.155275,-0.650095,4.67085
Nexo,76,0.103227879058,-0.351035,-3.01351,-0.0775701
Terra,77,0.193975674787,-1.03213,-0.716692,-10.6912
Horizen,78,6.15501744608,0.153086,-0.208388,8.12732
Ren,79,0.0636678238466,0.386762,-0.103036,6.5743
Hyperion,80,0.166682557247,0.370519,1.29469,27.6616
Matic Network,81,0.0151237732685,-0.148895,-3.52012,19.2339
BitTorrent,82,0.000242967815714,-1.29748,-3.05977,6.3309
Numeraire,83,20.6976789566,-1.21,-1.88634,-6.0051
BitShares,84,0.018131089506,-1.13956,1.50079,7.68597
Zilliqa,85,0.00493145472523,-1.94216,-4.34656,16.4564
v.systems,86,0.0247113387701,-2.93879,-3.20919,2.19936
HyperCash,87,1.06921069618,-1.10878,-2.44938,5.82526
Verge,88,0.00292313114849,0.402724,0.401017,7.48247
MaidSafeCoin,89,0.103333758724,0.0105888,1.97816,-17.4298
Aave,90,0.0346457254057,-0.0689601,-7.757,32.9302
Unibright,91,0.301046094943,-1.10159,4.10409,46.6765
Bytecoin,92,0.000238622467512,-2.8437,-1.68857,-5.75365
Blockstack,93,0.109130942713,-0.585622,-2.51082,20.6148
Decentraland,94,0.0312834863732,-0.783499,5.44357,9.69407
PAX Gold,95,1733.20679273,0.292702,-0.243592,1.47071
IOST,96,0.00348323163999,-0.814066,-3.60242,7.70145
Golem,97,0.0418372520559,-1.21123,1.84293,10.2977
Zcoin,98,3.99478249995,-0.580612,-2.28374,-3.38682
aelf,99,0.069043081182,-0.605382,1.08236,11.4616
Ardor,100,0.0369921780153,-0.394367,0.132769,7.50648
