Coins,Rank,Price,1hourChange,1dayChange,7daysChange
Bitcoin,1,9464.87479695,-0.14461,-2.24991,3.97479
Ethereum,2,208.586797102,-0.328568,-2.17222,6.66728
XRP,3,0.20059026865,-0.17338,-1.55016,-0.0182936
Tether,4,0.995649613878,-0.668071,-0.538497,-0.324751
Bitcoin Cash,5,237.993858932,-0.320206,-3.17461,0.863417
Bitcoin SV,6,195.09889608,-0.274555,-2.35658,3.41772
Litecoin,7,43.7821274883,-0.262735,-2.87069,2.18613
Binance Coin,8,16.6954985784,-0.270889,-1.33256,3.81115
EOS,9,2.5700611811,-0.216349,-2.28961,3.21817
Tezos,10,2.77811753533,0.429697,0.165201,8.92673
Cardano,11,0.0550579904676,0.283608,0.952123,7.47056
Chainlink,12,3.97993439565,0.237307,2.90342,6.62676
Stellar,13,0.0687209989594,-0.276833,-1.12016,-1.26219
Crypto.com Coin,14,0.0707640070076,-0.551777,0.293556,7.93986
Monero,15,64.2744603261,-0.352088,-3.39967,-0.573061
UNUS SED LEO,16,1.08879368849,-0.697997,0.413425,-1.6371
TRON,17,0.0148327448991,-0.206676,-3.3874,-0.829977
Huobi Token,18,4.04873428757,-0.390998,-1.64788,3.25996
Ethereum Classic,19,6.38351623051,-0.0144944,-3.87271,3.60782
Dash,20,75.3740889962,-0.352954,-0.518232,2.60471
Neo,21,10.0348470871,-0.435442,-1.19408,-1.12236
USD Coin,22,0.997433499389,-0.564114,-0.267834,-0.205072
HedgeTrade,23,2.10893792289,0.898499,-5.38198,-4.73485
IOTA,24,0.196840929361,-0.542874,-2.69366,2.29658
Cosmos,25,2.57466363589,-0.270303,-0.120165,2.21103
Zcash,26,47.8885688755,0.497684,0.551905,12.6874
NEM,27,0.0389243611751,-0.128951,-1.33658,1.36586
Ontology,28,0.477809769476,-0.526884,0.0542674,2.48267
Maker,29,325.010874126,1.65146,-0.420555,-0.295655
OKB,30,5.22978716371,-0.00200725,0.674956,3.14352
Dogecoin,31,0.00249480261008,-0.123673,-1.6681,0.206629
Basic Attention Token,32,0.202211818066,-0.14363,-1.81805,-0.176657
FTX Token,33,2.92577995039,-0.206479,-3.06329,1.8277
VeChain,34,0.00445708296077,0.281492,-1.06724,2.01871
Paxos Standard,35,0.997574296945,-0.487129,-0.292732,0.0608844
0x,36,0.358086341227,0.0678987,-1.02923,0.520543
THETA,37,0.239224203044,4.27303,20.2951,39.0534
DigiByte,38,0.0155714958014,-0.516798,-12.7719,-31.3161
Binance USD,39,0.999385386222,-0.636419,-0.106501,0.323156
ICON,40,0.320941173055,2.04602,9.57803,20.4758
OmiseGO,41,1.14968749799,0.23291,3.35782,53.7786
Hyperion,42,0.495971546967,-1.05811,-11.5898,0.246604
Bitcoin Gold,43,8.95576354411,-0.322929,-1.86369,-0.435866
Decred,44,13.5262686723,0.132009,-2.35994,1.59164
Hedera Hashgraph,45,0.0368655628025,0.0315558,1.94237,4.56852
Qtum,46,1.56011745668,-0.504143,-0.497776,5.13845
Synthetix Network Token,47,0.829352246372,0.366701,-0.344218,1.06992
Algorand,48,0.202342572326,0.25353,2.5209,4.00287
Augur,49,12.7999816248,-0.519939,-0.617926,-2.41455
Lisk,50,1.13194550245,-0.179596,-0.0629652,-1.61844
TrueUSD,51,0.996715891136,-0.459977,-0.307416,-0.0306615
HUSD,52,0.997151994872,-0.780057,-0.348216,-0.0455717
Enjin Coin,53,0.159512807713,0.666852,0.816754,-2.97128
Multi-collateral DAI,54,0.996244160814,-0.336363,0.0158233,-1.84175
Nano,55,0.876036059859,0.850037,-6.53336,24.6543
Ravencoin,56,0.0186924593254,-0.192477,-1.28823,-4.71052
Kyber Network,57,0.628180490869,0.866657,-2.43545,-1.95206
MonaCoin,58,1.65864555135,0.448595,-0.273789,16.7297
Waves,59,1.05017575731,0.363971,-1.0116,-2.18061
ZB Token,60,0.221291259715,-0.778797,-0.82285,-0.115131
Bitcoin Diamond,61,0.544571693558,-1.14568,-2.57119,-0.213807
Steem,62,0.260484499069,7.73905,25.3439,55.2496
Zilliqa,63,0.00950704675509,0.18728,-4.10494,5.38843
Hive,64,0.317661744675,-0.102116,0.120838,-1.86416
Flexacoin,65,0.00327148991744,-0.429027,-1.31882,-0.343293
Status,66,0.0259924630352,-0.795159,-3.14128,-14.4268
DxChain Token,67,0.00178484886812,-0.434057,-1.91937,5.33142
MCO,68,5.4242540668,0.481486,-2.70727,-1.19211
Holo,69,0.000523381264919,-0.0819093,-2.55565,1.33033
Siacoin,70,0.00200323729459,0.0549681,-0.430365,-3.92886
Aave,71,0.0609234189195,0.874407,1.46873,-4.71461
Ren,72,0.0905292110049,3.0764,4.37539,18.8558
Energi,73,2.61456313666,0.266577,-0.845704,-21.0748
KuCoin Shares,74,0.937205260968,-0.32715,-0.786089,-6.2443
Electroneum,75,0.007236612098,1.10473,-16.9984,39.4482
ABBC Coin,76,0.12962649015,-0.0656254,-6.52153,-23.5989
Matic Network,77,0.0206790573826,1.98676,-7.78723,13.2666
Unibright,78,0.477553336013,-2.60866,8.73783,50.807
Nervos Network,79,0.00403754627396,0.0426905,-2.07434,-0.190179
Seele-N,80,0.0925225907735,-0.153984,-0.470133,12.3113
Komodo,81,0.538115729011,-0.0380884,-1.74348,2.73886
Bytom,82,0.0623907433685,0.382123,-1.39576,-1.17095
Quant,83,5.13357502441,-4.15433,-3.2188,8.54728
Numeraire,84,25.0181373241,-0.410842,-6.78109,-15.8372
Nexo,85,0.106659235799,-0.142725,-5.97747,-6.62939
BitTorrent,86,0.00026900135339,-0.267343,-1.73471,0.142387
Verge,87,0.00343068461811,-0.248091,-2.85826,2.85513
Terra,88,0.188345333729,-0.977389,1.21993,-0.538514
BitShares,89,0.0187010975411,-0.107546,-0.930527,0.629884
Crypterium,90,0.508823760302,0.0321499,-0.0509529,16.3192
Blockstack,91,0.115115551816,0.101731,-0.729745,7.76075
Decentraland,92,0.036525764472,-0.173701,-1.17268,3.21114
Horizen,93,5.39568682669,0.0600888,-1.52028,-2.57397
Streamr,94,0.0724569017347,0.461073,-2.4721,-1.22638
SOLVE,95,0.139828190642,0.400363,-7.8908,39.0897
HyperCash,96,1.0460250802,-0.36064,-0.292346,3.12732
v.systems,97,0.0232202177054,-0.729196,-2.33695,-1.22586
PAX Gold,98,1772.05142244,0.263658,0.947808,3.38136
Golem,99,0.0461574229895,-0.124255,1.69051,2.96491
BHEX Token,100,0.157392970668,0.307975,-3.00103,-22.3471
