Coins,Rank,Price,1hourChange,1dayChange,7daysChange
Bitcoin,1,8759.20908682,0.0769271,-0.822534,-3.35658
Ethereum,2,223.766083896,-0.0659127,-2.40089,-4.1335
XRP,3,0.233332093797,-0.302002,-1.25297,-2.19704
Bitcoin Cash,4,323.156865322,-0.226484,-2.61398,0.410135
Tether,5,1.00112299982,-0.00775101,-0.118684,0.0187884
Bitcoin SV,6,236.62050423,-0.455199,-5.33824,2.13403
Litecoin,7,60.3145716099,0.00471317,-1.94249,-7.13461
EOS,8,3.60657544924,-0.0374602,-1.60424,-4.77928
Binance Coin,9,20.0141204174,-0.0659605,0.361313,5.34117
Tezos,10,2.85263338278,1.20125,2.98325,6.42363
Chainlink,11,4.79005208636,0.937682,9.28688,35.2929
Cardano,12,0.0492980746665,-0.270595,1.18114,-2.51385
Stellar,13,0.0582950480704,-0.272013,-2.07971,-4.43936
Monero,14,66.6046643548,-0.290771,-0.682213,-7.92084
TRON,15,0.0172764124993,-0.503855,-0.730545,1.98193
Huobi Token,16,4.60588706522,-0.130724,-2.50536,11.293
UNUS SED LEO,17,0.949700159874,-0.245801,-0.476219,4.91547
Ethereum Classic,18,8.00235029114,0.0439945,-3.84802,-2.11805
Neo,19,11.7122573392,-0.323839,-0.396629,2.52918
Dash,20,88.1832474747,-0.0968412,-1.18699,1.77247
Crypto.com Coin,21,0.0568395773499,-0.367904,0.00252528,2.20936
Cosmos,22,3.79121608192,0.00339357,4.49832,1.07643
HedgeTrade,23,2.4530673041,-0.211164,1.32214,-1.81832
IOTA,24,0.222570636825,0.142844,-1.22025,-2.4071
Maker,25,540.268296303,-0.108881,-5.47675,-4.71435
NEM,26,0.0529317613069,-0.0610621,-1.44838,11.5121
Zcash,27,50.2851662768,-0.0377061,-2.08171,-3.94427
USD Coin,28,1.0007490819,0.0330057,-0.0458718,-0.186861
Ontology,29,0.712432783444,-0.50928,-0.433806,-0.658751
VeChain,30,0.00603954138557,0.871566,4.76987,6.26344
Basic Attention Token,31,0.229708940339,0.0294616,0.809809,3.42352
OKB,32,5.38662099376,-0.280232,-2.64541,0.202795
Dogecoin,33,0.00242454605024,-0.206205,-0.941615,3.35879
FTX Token,34,2.6509182069,0.0600721,-1.29706,16.9329
Algorand,35,0.393507635804,3.59548,4.60392,5.97429
Qtum,36,2.13092353816,-0.25299,-0.401421,-1.6034
Decred,37,18.9051375275,-0.125884,4.11303,3.41728
Paxos Standard,38,1.0021312189,0.134254,-0.00449625,-0.16587
Bitcoin Gold,39,10.502599278,1.17732,6.63741,25.8928
ICON,40,0.322221409181,0.0424103,1.69135,7.92428
Lisk,41,1.32349569767,-0.387579,-4.65341,2.42281
0x,42,0.249912372746,-0.522872,1.13796,5.87965
Ravencoin,43,0.0275587524215,1.00597,5.33462,5.27011
ZB Token,44,0.328465235787,-0.237832,-0.722178,15.6778
Hedera Hashgraph,45,0.043728161349,0.904334,10.7528,32.3775
TrueUSD,46,0.998457438851,-0.148839,-0.123694,-0.290368
Synthetix Network Token,47,0.802602796087,0.228605,-8.82536,-2.25385
Augur,48,12.1642807818,0.461596,-3.8724,5.17222
Bitcoin Diamond,49,0.678283385456,0.140929,-3.35663,7.12351
OmiseGO,50,0.899529705497,0.622915,1.37959,-0.121396
MonaCoin,51,1.88431464715,1.60313,5.97592,20.9471
Waves,53,1.1571975141,-0.0883158,-0.107571,-8.02429
Multi-collateral DAI,52,1.00056460232,0.0806445,-0.43506,1.04963
Kyber Network,54,0.631557297745,1.28184,-8.67306,29.5989
THETA,55,0.127326239814,0.210765,-2.70181,6.49734
v.systems,56,0.0566491848993,1.82253,23.0487,34.0096
Holo,57,0.00063664014405,0.428499,-0.455316,-0.920742
KuCoin Shares,58,1.24758554534,0.296494,1.35363,3.96978
Nano,59,0.764231534403,-0.379189,-1.37221,-1.67688
Nervos Network,60,0.00730714028428,0.549566,2.07494,16.6149
Nexo,61,0.176678399636,-0.823104,1.91949,11.3208
Siacoin,62,0.00220582456182,-0.390636,-4.01671,0.64379
Horizen,63,10.2716846671,2.9238,1.97655,5.03693
Binance USD,64,1.00069159471,-0.0575764,-0.0783454,-0.307887
Bytecoin,65,0.000466706477698,5.55924,3.77862,-1.70721
Enjin Coin,66,0.104966177215,-0.311125,-4.69575,4.37948
DigixDAO,67,42.1747301549,0.247663,-2.09017,-0.463706
DxChain Token,68,0.00162187753075,1.33843,3.31186,-12.7636
MCO,69,5.0799004842,0.00786205,-0.995157,-1.62393
Bytom,70,0.0786394870663,0.203954,-0.0598641,-0.29475
DigiByte,71,0.00606312067801,0.444702,2.11395,0.188772
BitTorrent,72,0.000367949793164,-0.594403,-1.3171,-1.79309
Komodo,73,0.626160701531,-2.47503,-0.750849,4.15567
Swipe,74,1.1908302293,6.555,1.82664,13.2382
HyperCash,75,1.58040433342,0.129381,-0.783782,-2.15498
BitShares,76,0.0254520807156,-0.16112,-1.24455,3.18794
Matic Network,77,0.0269784152172,3.06188,28.2163,48.3132
Terra,78,0.239305281892,0.849826,-1.31365,8.76973
Steem,79,0.182508278688,0.359754,-0.596478,7.5444
IOST,80,0.00532743309307,0.674089,2.12918,2.07697
Verge,81,0.00382468022875,0.395216,-0.0399369,0.530802
Zilliqa,82,0.00614042144385,0.16005,-2.07581,4.34549
Chiliz,83,0.0127470849995,2.26027,5.8675,18.2617
ABBC Coin,84,0.102815809771,1.86909,11.4498,-1.57826
Molecular Future,85,0.656663273544,-0.115783,3.09845,-35.2299
Ren,86,0.0649274486205,0.473241,-0.33101,23.525
Seele,87,0.0787754407103,0.315766,-0.675948,-2.5353
Status,88,0.0157868975904,-0.0938242,-0.826512,9.51987
Aion,89,0.135529040367,-2.05318,-6.23342,-19.029
Golem,90,0.0541568812559,-0.732784,-2.35222,0.748023
aelf,91,0.0958185358534,-0.183749,-3.18676,17.6449
Aeternity,92,0.170238295821,0.120884,-2.33209,-3.20251
Ardor,93,0.0514285527701,0.14354,-0.329828,4.48772
Zcoin,94,5.22102184332,0.355791,-0.981877,-2.72404
WAX,95,0.0472695275909,1.31131,4.4836,25.8402
Decentraland,96,0.0456076304659,2.68171,8.50264,13.0817
iExec RLC,97,0.583191253982,0.326032,-1.58084,3.63262
Aragon,98,1.39460157063,0.693261,2.15674,36.7055
Power Ledger,99,0.106109773674,0.388844,-3.13726,20.1956
Blockstack,100,0.137836399896,1.28498,2.43602,4.02105
