Coins,Rank,Price,1hourChange,1dayChange,7daysChange
Bitcoin,1,8819.91222283,-0.464455,-0.511154,14.0689
Ethereum,2,204.770850129,-0.634046,-2.40691,4.93743
XRP,3,0.217309131022,-0.601345,-0.716719,10.576
Tether,4,1.00679219479,0.115861,0.378292,0.187733
Bitcoin Cash,5,243.29833907,-0.382129,-3.18819,1.43399
Bitcoin SV,6,204.157782229,-0.158241,-1.50574,5.55112
Litecoin,7,47.0900247892,-0.241711,-1.46639,6.45248
Binance Coin,8,16.8749415484,-0.731849,-1.27907,3.47725
EOS,9,2.74866197202,-0.784721,-2.58095,0.683546
Tezos,10,2.78814203833,-0.45798,2.48549,4.87062
Stellar,11,0.072069508472,-1.42467,-1.34691,13.8987
Chainlink,12,3.76808053171,0.157655,2.1416,5.2527
Cardano,13,0.0495664932843,-0.235479,1.80121,8.9238
TRON,14,0.016220156009,-0.539933,2.04523,12.1377
UNUS SED LEO,15,1.08149774662,1.02648,1.6315,2.7252
Monero,16,60.1802331284,-0.39482,-3.50356,-2.56196
Crypto.com Coin,17,0.0605174521282,-0.364807,2.34917,8.38576
Huobi Token,18,4.18268326557,0.186743,0.0365001,3.46344
Ethereum Classic,19,7.20735484896,-0.556544,-0.961472,18.9502
Dash,20,78.7589615514,-0.733042,-2.6266,-3.97001
USD Coin,21,1.00205395555,-0.0434026,0.20185,-0.0597025
Neo,22,9.00778693147,-0.727672,0.957806,7.56849
HedgeTrade,23,2.13500977673,-0.991539,-1.34556,7.00845
Cosmos,24,2.72555305574,-1.29432,-2.28875,-0.19065
IOTA,25,0.183314503443,-1.17227,0.57096,6.73862
Zcash,26,43.8177076885,-0.576321,-2.90202,0.153347
NEM,27,0.0405535551142,-0.908077,-3.38133,2.96043
Maker,28,344.497624042,-0.282767,-7.19822,1.04768
Ontology,29,0.47965786803,-0.0155862,-2.0353,2.36736
OKB,30,5.20707683636,-0.580442,-1.91894,6.47173
Dogecoin,31,0.00246995568278,-0.374241,-1.29003,4.54982
FTX Token,32,3.09949135377,-0.551784,-1.2303,8.66283
Basic Attention Token,33,0.185402616481,-0.745009,-0.0837405,2.7063
VeChain,34,0.00452590448084,-0.767659,4.45192,4.10054
Paxos Standard,35,1.00489904337,0.0258807,0.387178,0.110465
DigiByte,36,0.0186651957886,-0.553586,5.06653,53.9335
Hyperion,37,0.615094843678,3.82132,64.2631,269.645
Binance USD,38,1.00441664168,0.0663383,0.330417,0.0958596
Bitcoin Gold,39,9.7459829263,-0.562356,-1.504,3.98008
Decred,40,14.5386543222,-0.45524,0.624184,11.2957
Hedera Hashgraph,41,0.0399244058481,0.101977,2.20815,17.4103
Lisk,42,1.20908473555,-0.704155,-1.47407,7.28563
Qtum,43,1.54108569137,-0.877624,-2.71284,3.53574
Algorand,44,0.20614687492,1.03268,-0.0569877,-3.38813
ICON,45,0.269753793859,-1.04051,-2.04411,-3.67195
Synthetix Network Token,46,0.770308262661,-0.448868,-1.83272,6.147
TrueUSD,47,1.00518891504,0.069176,0.36297,0.165048
0x,48,0.205719092186,-0.5134,-0.015468,-0.804053
Ravencoin,49,0.0211291379524,-0.92233,1.94763,10.798
THETA,50,0.142762065147,0.767596,1.69385,34.9001
Augur,51,11.2818593831,0.959193,3.83677,8.81665
Hive,52,0.42682929331,-8.97178,18.7568,-31.7237
Kyber Network,53,0.673272178844,0.0866053,2.19485,-1.44451
ZB Token,54,0.241779790668,-0.100397,-1.76165,-0.973122
Enjin Coin,55,0.134470163549,-0.168525,-1.42929,0.209922
Multi-collateral DAI,56,0.999267279848,-0.440108,0.775877,-0.321003
Bitcoin Diamond,57,0.568498797073,-0.608987,-2.29847,6.01172
Waves,58,1.03813980856,-0.316485,-1.95936,-2.39452
OmiseGO,59,0.714161867967,-0.61782,-2.21485,8.32911
Holo,60,0.000584786948849,3.12317,40.5427,67.6103
MonaCoin,61,1.34415928689,-0.500678,-2.98146,11.168
DxChain Token,62,0.00173182112963,0.0105977,-3.35918,3.83451
Siacoin,63,0.00205450802075,-0.554935,-0.867835,19.3489
Energi,64,2.97417942385,-0.525289,-6.01458,-11.6076
Nano,65,0.632172108481,-1.16762,-3.16649,7.01458
MCO,66,5.14467901555,-0.621301,-2.36438,1.1888
DigixDAO,67,39.3457677125,-0.554203,-2.08372,5.28607
KuCoin Shares,68,0.928016395859,-0.726323,-1.94428,-2.98815
Nervos Network,69,0.00428671395745,0.265196,-2.54294,-10.3756
Zilliqa,70,0.00719464023515,0.969685,21.1111,45.4783
Status,71,0.0199281422238,-0.102114,-2.95187,6.25401
Steem,72,0.184997999768,-0.678937,-0.401808,-16.2015
Bytom,73,0.0670598174023,0.0728148,-3.40144,1.43242
ABBC Coin,74,0.118240026395,1.11424,8.13222,0.681079
BitTorrent,75,0.000299351392587,-1.1703,5.23414,23.8875
Komodo,76,0.530276655763,-0.29653,-1.5156,-5.65677
Nexo,77,0.110645687826,-0.656007,1.08327,7.19729
Quant,78,4.97493050398,-0.494322,-3.27815,-0.388391
Matic Network,79,0.0169940029508,-0.977998,-0.924738,12.2811
Seele-N,80,0.0807907455855,0.157861,-0.561368,-5.36145
Terra,81,0.192244165402,-0.138611,-1.70841,-1.5048
BitShares,82,0.019968353543,-0.279444,-1.41209,11.8311
Ren,83,0.0640146374584,-1.34173,0.079715,0.576614
Aave,84,0.0410095834226,-0.592748,-0.917853,18.2792
Horizen,85,5.79259404115,0.237916,-0.0642116,-5.15064
Numeraire,86,21.1115607452,-0.13498,0.83432,1.57359
Verge,87,0.0031314456284,-0.271176,2.0423,7.23051
v.systems,88,0.0255870621248,-0.168981,-1.06544,2.20115
HyperCash,89,1.11072589433,-0.579142,-2.93291,4.12019
Decentraland,90,0.0347097770237,-0.472915,-0.824417,10.7287
MaidSafeCoin,91,0.0995408228205,-0.459958,-6.16592,-2.56071
IOST,92,0.0037334411432,-0.471208,-2.43942,7.06056
Streamr DATAcoin,93,0.0650502372457,-1.57476,-4.66206,38.3149
PAX Gold,94,1713.46722257,0.0297436,0.368923,-1.21293
Golem,95,0.0435730858477,0.011711,-1.41661,4.08543
Zcoin,96,4.1592859938,-0.389631,-0.153212,4.49447
Blockstack,97,0.1041154288,-0.190811,-1.2462,-4.47464
Unibright,98,0.275216124865,0.420671,0.576059,-9.95092
aelf,99,0.0726054235756,0.566576,0.385775,4.06529
Ardor,100,0.0390801874684,0.0963533,-1.24696,6.5122
