Coins,Rank,Price,1hourChange,1dayChange,7daysChange
Bitcoin,1,8755.48687202,-0.274088,-5.32336,-9.71865
Ethereum,2,202.873732201,-0.206462,-3.09701,-4.5748
Tether,3,1.00070445123,0.00875181,-0.195869,0.044938
XRP,4,0.193676219851,-0.260615,-3.32193,-5.20498
Bitcoin Cash,5,227.643119645,-0.245487,-3.37448,-8.03921
Bitcoin SV,6,184.77182959,-0.196631,-4.68827,-7.83073
Litecoin,7,42.6536143249,-0.143314,-3.37161,-5.61063
Binance Coin,8,16.1609620429,-0.135495,-3.25771,-2.29945
EOS,9,2.50637383244,-0.256386,-3.17052,-6.15628
Tezos,10,2.71223851025,-0.632453,-3.28288,-0.447764
Cardano,11,0.0523316614953,-0.318049,-6.05486,-3.1476
Chainlink,12,3.84641129204,-0.195742,-3.69845,-1.23133
Stellar,13,0.0645376534536,-0.288847,-4.72803,-7.65951
Crypto.com Coin,14,0.075459947395,-0.0312832,-1.0036,10.5091
UNUS SED LEO,15,1.14010615936,-0.198253,0.196171,5.28868
Monero,16,60.9380023192,-0.432189,-4.04579,-8.36784
TRON,17,0.0144610557511,-0.178129,-4.77973,-5.3641
Huobi Token,18,3.858279699,0.0385316,-2.83686,-6.53035
Ethereum Classic,19,6.75911984155,-0.0752192,0.566423,0.0637861
USD Coin,20,0.998609022154,-0.206437,-0.343271,-0.2483
Neo,21,9.80915304651,-0.471493,-4.12966,-5.06916
Dash,22,72.7428337922,-0.157533,-3.1168,-4.49438
HedgeTrade,23,2.03140973314,-2.88477,-4.86475,-14.1174
IOTA,24,0.192519996988,-0.318536,-4.18602,-5.26424
Cosmos,25,2.52668092406,0.147349,-4.1387,-3.11561
Zcash,26,45.1305070482,-0.320932,-4.7178,-6.64587
NEM,27,0.0392557017815,-0.407542,-3.53501,-0.535031
Maker,28,340.02640514,-1.04297,-1.81578,0.522004
Ontology,29,0.476531918249,-0.132897,-5.25588,-0.850787
THETA,30,0.367731014383,1.50545,15.1823,96.1779
Dogecoin,31,0.00248118020333,-0.0771018,-2.60908,-2.34735
OKB,32,4.93328446894,-1.25542,-3.28975,-6.36999
Basic Attention Token,33,0.197174347476,-0.127062,-4.75737,-5.05959
VeChain,34,0.00478048609819,-0.234292,0.593207,5.15178
FTX Token,35,2.72892507998,-0.198192,-5.29263,-9.64344
DigiByte,36,0.0189748868567,-0.226061,-7.05595,-2.41823
Paxos Standard,37,0.998399272702,-0.229151,-0.290555,-0.136641
OmiseGO,38,1.6310274736,-0.769967,-6.38398,69.4313
0x,39,0.322760692977,2.02807,-3.04773,-13.6689
Binance USD,40,1.00080681115,-0.126532,-0.160462,0.0584771
ICON,41,0.315302109203,-0.479326,-6.49706,11.7741
Hedera Hashgraph,42,0.0384492239581,0.5132,2.37895,7.17389
Decred,43,13.8229769557,0.418463,-1.69639,-2.52824
Qtum,44,1.59741397888,-0.0803389,-6.63484,1.40645
Bitcoin Gold,45,8.59112151583,-0.541709,-4.60019,-7.23366
Hyperion,46,0.46146010978,0.464991,-4.39859,-19.9429
Algorand,47,0.202990811482,-0.796914,-2.64073,1.31608
Lisk,48,1.1681578875,-0.411788,-3.11508,2.52148
Synthetix Network Token,49,0.777118080297,-0.165375,-6.07769,-7.26333
Enjin Coin,50,0.170404669264,0.272389,-1.93581,7.4224
TrueUSD,51,0.996407924205,-0.190365,-0.528176,-0.358373
HUSD,52,0.999481982993,-0.15057,-0.287196,-0.075145
Augur,53,12.1159008516,-0.805976,-4.80744,-5.48079
Ravencoin,54,0.019231557609,-0.114329,-3.37626,0.02548
Multi-collateral DAI,55,0.9930217992,-0.0245626,-0.926123,-0.892581
Nano,56,0.891298581143,-0.13738,-6.80043,15.7962
Kyber Network,57,0.657818155897,0.181028,-4.58534,4.24296
Zilliqa,58,0.0106038000753,1.08507,6.90277,4.96708
Waves,59,1.03207580563,0.306372,-3.78855,-2.43799
MonaCoin,60,1.58809857252,0.750669,-3.05659,6.1872
ZB Token,61,0.22134442496,-0.755144,-3.19411,-1.45401
Bitcoin Diamond,62,0.548518945678,-0.348585,-4.97406,-2.40532
Siacoin,63,0.00230792910805,-0.301251,5.53852,11.553
Holo,64,0.00055188590158,-0.42834,-3.28999,2.01698
Status,65,0.0250762225687,-1.85251,-7.62908,-10.3008
Flexacoin,66,0.0030693252825,-1.72816,-4.81453,-9.34714
MCO,67,5.31897879835,0.465008,-4.12679,-5.04254
Ren,68,0.0978340899154,-0.477453,-7.57872,16.0566
KuCoin Shares,69,0.980981009419,0.896445,-0.832729,3.71623
DxChain Token,70,0.00158033494479,4.85805,-9.09606,-12.8929
Hive,71,0.270522017471,0.171399,-8.73298,-17.1672
Unibright,72,0.503736983815,-1.22646,-8.20225,6.85431
Steem,73,0.197698070252,-0.115392,-5.80194,10.3869
Aave,74,0.055659820943,-1.2122,-5.03512,-7.45687
Electroneum,75,0.00713095641868,-0.169055,-4.03661,-16.4541
Energi,76,2.42702898404,-0.800182,-4.03087,-10.3187
Komodo,77,0.58981457969,-0.415927,-1.6968,8.59512
Nervos Network,78,0.00406661223778,-0.287689,-7.67125,-4.56787
Verge,79,0.00418668619751,1.36129,1.27895,20.5256
Theta Fuel,80,0.0177485520413,-4.95651,36.543,601.039
Matic Network,81,0.0198009635186,-0.330576,-6.87002,-4.66912
Seele-N,82,0.0931625848178,0.556414,-1.41972,-2.15601
Bytom,83,0.0626163331485,0.187249,-5.03977,-2.41297
Nexo,84,0.111905746106,-0.0570106,-4.03365,1.95591
ABBC Coin,85,0.111413481758,-0.714084,-7.82563,-21.8661
Quant,86,5.0158939304,3.68697,-3.1257,-1.42114
BitTorrent,87,0.000274488443679,-0.0261048,-1.20212,0.398961
Numeraire,88,23.8322643787,0.325171,-11.046,-18.4085
Blockstack,89,0.131994916011,0.0416527,6.08607,10.8631
HyperCash,90,1.25628592621,-0.19765,-7.24531,20.5249
BitShares,91,0.0200787136333,-0.672315,-2.23177,5.68818
Horizen,92,6.01802756001,0.80226,-5.38817,9.96564
Terra,93,0.18894631014,1.3258,0.323083,-2.31644
SOLVE,94,0.157441160729,3.09703,-0.974038,26.2389
WAX,95,0.0453838830062,-4.15699,-9.34858,42.8013
Decentraland,96,0.0380793348875,-0.0481812,-4.80978,3.89197
IOST,97,0.00417993820101,0.0288044,2.52645,15.5757
Golem,98,0.0492209403982,-0.270252,-3.45273,7.72778
Ardor,99,0.0472511887195,0.328377,-7.39513,17.6612
Streamr,100,0.0706297469805,-0.0855877,-2.69978,-4.5092
