Coins,Rank,Price,1hourChange,1dayChange,7daysChange
Bitcoin,1,8881.72984161,-0.533182,1.38443,-8.32177
Ethereum,2,202.634061464,-0.892773,-0.199536,-4.82229
Tether,3,1.00079050948,-0.36503,0.218375,0.00357539
XRP,4,0.195136527722,-0.199016,0.867911,-4.23723
Bitcoin Cash,5,227.761403713,-0.411458,-0.127596,-7.6828
Bitcoin SV,6,183.808426578,-0.522754,-0.505576,-8.11226
Litecoin,7,42.5629205694,-0.582186,-0.310338,-5.29703
Binance Coin,8,16.2637776128,-0.679158,0.715283,-3.14225
EOS,9,2.51313305963,-0.652079,0.300201,-4.37106
Tezos,10,2.69834092664,-0.717773,-0.38055,-0.74717
Cardano,11,0.0531062859047,-0.416316,1.31282,-1.53446
Chainlink,12,3.84254301354,-0.615154,-0.118726,-0.484211
Stellar,13,0.0652680463469,-0.668059,1.0678,-5.86467
Crypto.com Coin,14,0.0785853953122,-0.708232,4.51423,13.0517
UNUS SED LEO,15,1.14133206631,-0.531503,0.0740483,5.32202
Monero,16,62.0290135478,-0.186994,1.64425,-6.58004
TRON,17,0.0145470933984,-0.474191,0.601637,-5.02379
Huobi Token,18,3.86629714293,-0.342011,0.392261,-6.26974
Ethereum Classic,19,6.70072958275,-0.533047,-1.049,0.739592
USD Coin,20,1.00076186814,-0.464059,0.0955683,0.00822918
Neo,21,9.87438066672,-0.6264,0.635415,-2.87441
Dash,22,72.5496376987,-0.493939,-0.210868,-3.86499
HedgeTrade,23,2.06586374212,-2.03532,1.00014,-11.5087
IOTA,24,0.192893756595,-0.595422,0.181608,-4.35195
Cosmos,25,2.5970619039,-0.144467,2.88904,0.751858
Zcash,26,45.2644165172,-0.642624,0.167415,-4.79524
THETA,27,0.459686670601,3.12395,27.1487,141.634
NEM,28,0.0401575824724,-0.465246,2.11874,1.67758
Maker,29,342.09853256,-0.516245,-0.286699,4.45901
Ontology,30,0.485481660405,-0.599738,1.76888,1.93881
Dogecoin,31,0.00250974682499,-0.376972,1.0466,-0.931045
Basic Attention Token,32,0.204989383046,-0.22453,4.22435,-0.597731
OKB,33,4.94904952279,-0.589966,-0.310628,-5.03548
VeChain,34,0.0048992791417,0.198532,1.82377,9.69955
FTX Token,35,2.81324363156,0.235996,3.04159,-6.71921
DigiByte,36,0.0187649317762,-0.608532,-0.330241,1.9019
Paxos Standard,37,1.00016703065,-0.513954,0.0309051,-0.0344502
OmiseGO,38,1.67536149992,-0.778485,2.10872,65.8961
0x,39,0.331980891104,-2.00088,3.67069,-8.71612
Hedera Hashgraph,40,0.0425996020839,0.908521,11.5122,18.8202
ICON,41,0.340751377759,0.733291,8.34537,16.271
Binance USD,42,1.00121790366,-0.42872,0.0903534,0.0796159
Decred,43,14.0691333793,-0.420028,1.871,1.25882
Enjin Coin,44,0.193771854417,-0.814415,14.1919,22.4353
Qtum,45,1.61414434123,-0.383413,1.16122,3.59316
Bitcoin Gold,46,8.86218972582,-1.08203,3.04781,-3.26185
Algorand,47,0.213283071723,0.0228826,4.85481,7.39778
Lisk,48,1.19452911958,-0.379397,2.41883,5.20164
Synthetix Network Token,49,0.79748087057,-0.590282,2.44783,-4.28403
Hyperion,50,0.436338797649,-0.883204,-5.24971,-22.2417
Augur,51,12.458836487,-0.637623,2.20145,-3.12954
TrueUSD,52,0.996500444482,-0.751729,-0.114193,-0.349681
HUSD,53,1.0001068106,-0.517115,0.093547,-0.0667628
Zilliqa,54,0.0126748084931,-1.30351,15.7775,28.0092
Ravencoin,55,0.0201881766063,1.10772,4.80286,6.25484
Nano,56,0.912529564926,-2.03809,2.64208,8.17258
Multi-collateral DAI,57,0.99576907802,-0.370168,0.276092,-0.14463
Kyber Network,58,0.659272097414,-0.876493,0.0946198,3.74582
Waves,59,1.07100957724,0.763276,3.92415,1.46503
ZB Token,60,0.228466737136,-0.623856,3.21231,2.54386
MonaCoin,61,1.60338530814,-0.134001,1.26957,-4.07039
Bitcoin Diamond,62,0.558092780126,-1.69348,1.56286,-0.294521
Siacoin,63,0.00227022661886,-0.85252,-0.593675,12.7674
Status,64,0.0269957793817,-0.429837,7.00472,0.27837
Holo,65,0.000569339173028,-0.7756,2.19955,5.71851
Flexacoin,66,0.00314702229529,-0.661824,0.898042,-11.8894
MCO,67,5.34379011353,-1.34262,0.69045,-3.71338
Hive,68,0.271269747977,-0.596413,0.613424,-16.1002
Matic Network,69,0.023029445646,5.26007,16.4252,5.2732
KuCoin Shares,70,0.971633611928,-0.363261,-0.976836,2.89819
DxChain Token,71,0.00157334867345,1.06457,1.29739,-13.0502
Ren,72,0.0906139075535,-1.00557,-7.1335,5.16085
Unibright,73,0.503507194136,-1.15169,-0.542143,12.0513
Steem,74,0.203591845645,0.326343,3.45026,-3.70466
Electroneum,75,0.00737357331854,-0.549768,3.31362,-19.8354
Nervos Network,76,0.00427037932078,-0.822582,5.10725,3.15673
Aave,77,0.0564360456749,-0.568443,1.2426,-1.88353
Komodo,78,0.606580965002,-0.336093,2.93335,10.3781
Energi,79,2.36997800126,-0.602984,-2.62586,-12.4171
Bytom,80,0.0638088672847,-0.572208,2.33595,0.616996
Nexo,81,0.120064320938,-0.652977,6.82217,7.74334
Verge,82,0.00410810637857,-1.081,-1.35489,16.0877
ABBC Coin,83,0.116853099951,1.6982,4.71279,-17.2021
Seele-N,84,0.0916636919056,-1.09469,-1.05491,-4.90589
Theta Fuel,85,0.0161216406556,-0.925394,-6.02843,543.1
Quant,86,5.02609467765,-0.649153,2.4239,-5.22653
BitTorrent,87,0.000280797397389,-0.586516,2.43273,2.5006
BitShares,88,0.021064883568,-0.236555,5.0471,11.8297
Numeraire,89,23.5590554204,0.0819886,-0.665719,-12.8402
Decentraland,90,0.0414473221129,-0.936796,9.31642,12.3906
Terra,91,0.197263723364,-0.470281,5.39857,5.79484
HyperCash,92,1.26576768776,-0.994026,0.893194,20.8665
Blockstack,93,0.128321505079,-0.563715,-2.5577,11.2247
Horizen,94,6.1239776218,-0.906889,1.73762,11.3586
SOLVE,95,0.161739486123,0.607387,2.63847,14.5376
IOST,96,0.00451617834744,-0.0354606,7.89676,26.1846
WAX,97,0.0462872970809,0.521456,0.548135,42.773
v.systems,98,0.0245962265433,-0.330364,6.5619,3.33821
Golem,99,0.0502090656374,-0.60527,2.37495,10.9042
MaidSafeCoin,100,0.108592845378,-0.525888,5.88838,11.2437
