Coins,Rank,Price,1hourChange,1dayChange,7daysChange
Bitcoin,1,9078.98862365,-1.77001,-5.95732,-5.78606
Ethereum,2,200.792024532,-1.9405,-5.29166,-0.390475
Tether,3,0.996743110637,-0.684553,-0.381651,-0.249378
XRP,4,0.193776396419,-2.11567,-4.82817,-4.43339
Bitcoin Cash,5,227.777279406,-2.58311,-6.46006,-5.5608
Bitcoin SV,6,190.045887574,-1.79838,-4.68693,-1.14131
Litecoin,7,42.584147196,-2.03128,-5.10364,-2.57315
Binance Coin,8,16.1893256586,-1.72636,-4.90056,-1.00123
EOS,9,2.47554995157,-1.87903,-5.46047,-2.93767
Tezos,10,2.68630333116,-1.4168,-5.2524,5.6808
Cardano,11,0.0531592894999,-3.35554,-5.42326,3.96261
Chainlink,12,3.89795048085,-1.2331,-3.98459,2.8677
Stellar,13,0.0661838248913,-2.36908,-6.12796,-3.98946
Crypto.com Coin,14,0.0693728082343,-3.24853,-3.52966,8.4115
UNUS SED LEO,15,1.11175012554,-0.571282,1.98599,2.3295
Monero,16,61.4398417473,-2.12942,-6.49485,-4.64713
TRON,17,0.0142468338182,-2.46212,-5.84304,-5.82708
Huobi Token,18,3.92337785958,-0.807504,-4.49973,-2.5948
Ethereum Classic,19,6.10599088959,-2.70174,-6.57355,-2.41751
USD Coin,20,0.996444389088,-0.533785,-0.425365,-0.0735572
Dash,21,73.3396506406,-2.15094,-4.2405,-1.40545
Neo,22,9.57712378024,-1.97082,-6.28468,-6.79076
HedgeTrade,23,1.99637317502,-2.07653,-6.31769,-12.9356
IOTA,24,0.185531004735,-3.05987,-8.14036,-6.45018
Cosmos,25,2.57024280663,-1.97972,-2.95916,2.68733
Zcash,26,45.4481218581,-1.71724,-6.89281,5.79591
NEM,27,0.0380182610498,-2.86264,-4.04876,-2.68376
Ontology,28,0.465831974404,-3.44293,-5.42039,-1.10938
Maker,29,315.071084689,-1.69612,-2.85114,-4.40567
Dogecoin,30,0.00247415389016,-1.99099,-2.28551,-3.60045
OKB,31,4.99964001054,-3.48057,-4.98034,-5.37091
Basic Attention Token,32,0.196786787858,-2.72103,-5.06063,-2.4489
FTX Token,33,2.81087712057,-1.27497,-5.95858,-5.29086
Paxos Standard,34,0.997937017811,-0.567022,-0.294516,-0.0180737
VeChain,35,0.00421674519783,-3.34637,-7.38881,-5.31332
0x,36,0.338959486113,-2.04772,-8.12752,-1.75415
THETA,37,0.251901707036,-1.0089,5.88554,52.4388
DigiByte,38,0.0151262934528,-4.10531,-6.57235,-30.2981
OmiseGO,39,1.33204698252,3.11127,14.1499,58.3983
Binance USD,40,0.99912303786,-0.613438,-0.348209,0.249478
ICON,41,0.298668440745,-0.943884,-7.9264,11.277
Hyperion,42,0.492545626766,-0.32613,0.893719,-4.49965
Decred,43,13.1377015795,-2.81022,-4.42242,-3.87157
Bitcoin Gold,44,8.59427441245,-2.14615,-5.76444,-6.21538
Hedera Hashgraph,45,0.0360203465411,-1.45877,-4.32628,-1.25129
Qtum,46,1.50461535164,-2.27692,-5.45514,0.177489
Synthetix Network Token,47,0.796857418561,-2.04803,-5.35285,-1.14713
Enjin Coin,48,0.174764274482,-2.05919,6.53607,9.93364
Algorand,49,0.194228714407,-2.3451,-6.6958,-2.07265
TrueUSD,50,0.996173633545,-0.517148,-0.44062,-0.0302074
Lisk,51,1.09157577065,-2.29066,-5.28441,-3.80128
Augur,52,12.2156907774,-3.14749,-6.15179,-4.8561
HUSD,53,0.998015574037,-0.644429,-0.380882,0.0120584
Multi-collateral DAI,54,0.985936801975,-0.750541,-1.57336,-1.74357
Nano,55,0.860183086542,-4.89755,-4.79492,22.642
Ravencoin,56,0.0180993245885,-3.6638,-5.60301,-5.96995
Kyber Network,57,0.617903160813,-2.97863,-3.67605,-3.40334
Waves,58,1.01880398891,-1.97185,-4.48199,-3.49515
MonaCoin,59,1.55951631507,-0.485098,-7.35804,11.1436
ZB Token,60,0.218863866322,-1.44144,-2.6255,-1.97163
Bitcoin Diamond,61,0.535669465659,-1.48941,-4.0924,-3.2897
Zilliqa,62,0.00891509288658,-1.68891,-8.41372,-5.0056
Flexacoin,63,0.00319096922762,-1.00123,-5.54372,0.751754
Hive,64,0.297566094073,-2.85167,-7.02359,-8.29108
DxChain Token,65,0.0017185987321,-2.63882,-5.05669,-1.89402
Holo,66,0.000508893620112,-2.16044,-4.54724,-1.12297
Status,67,0.0240108276941,-3.93324,-10.039,-19.6901
MCO,68,5.24495443627,-2.73792,-5.45163,-6.85794
Siacoin,69,0.00197256887503,-3.44597,-3.57194,-6.07627
Steem,70,0.208702151539,-0.689197,-15.415,22.8222
KuCoin Shares,71,0.933076591209,-0.977994,-1.89998,-1.04749
Aave,72,0.0580645465589,-3.24176,-6.35925,-7.64013
Ren,73,0.0878231133503,-2.78955,-2.98707,15.7158
Energi,74,2.53739126205,-1.50784,-3.91127,-33.1197
Unibright,75,0.488522530363,-3.8751,-2.47027,40.2948
Matic Network,76,0.0195293104277,-0.633675,-8.81981,-5.00286
Nervos Network,77,0.00386092988933,-1.74174,-6.08068,-3.2006
ABBC Coin,78,0.119877571029,-1.69342,-9.02576,-23.6709
Komodo,79,0.547461545088,-3.0618,-0.690325,2.79775
Seele-N,80,0.0878561896985,-2.63728,-6.36849,4.06358
Quant,81,5.03118287557,-3.20912,-6.22713,4.09308
Nexo,82,0.107509491474,-1.5671,-0.729694,-6.45584
Bytom,83,0.0595870362557,-3.25821,-5.78746,-6.02961
Verge,84,0.00355864565443,-4.36245,1.42,5.29888
Electroneum,85,0.00565580546056,-6.00494,-23.2942,7.37491
Numeraire,86,22.8992204839,-2.15224,-11.1628,-19.967
BitTorrent,87,0.000257638271407,-2.66851,-5.87136,-5.18268
Terra,88,0.181924342064,-0.73236,-3.62514,-3.36844
WAX,89,0.0441285506192,6.58458,22.5551,40.935
Blockstack,90,0.114431765504,-5.93284,-3.69659,6.45122
BitShares,91,0.0180618386024,-3.07048,-5.09569,-4.32269
Horizen,92,5.38387875993,-3.62373,-2.43156,-1.18926
Decentraland,93,0.0357422423255,-4.46363,-5.2448,-1.89857
HyperCash,94,1.06297972322,-1.8162,-0.380928,3.55013
Streamr,95,0.0698699530249,-2.90284,-5.176,-4.95541
BHEX Token,96,0.16250841994,0.66928,2.94484,-23.0313
Crypterium,97,0.463793642334,-2.17392,-12.3873,-10.6567
SOLVE,98,0.132508016028,-2.69465,-8.38563,36.8466
Golem,99,0.0459598743412,-4.0003,-2.54932,2.65479
v.systems,100,0.0222464199593,-2.3088,-6.2,-8.05786
