Coins,Rank,Price,1hourChange,1dayChange,7daysChange
Bitcoin,1,7567.461777,0.0894338,6.64307,6.5712
Ethereum,2,189.462306005,-0.208076,4.37454,10.8298
XRP,3,0.195689667792,-0.324893,4.38493,3.5438
Tether,4,1.00341971069,-0.0284926,-0.0571838,-0.0633605
Bitcoin Cash,5,240.137381766,-0.278927,4.77819,2.65439
Bitcoin SV,6,195.713476092,-0.659115,3.09055,0.461356
Litecoin,7,44.434660732,1.39709,6.81059,4.87008
Binance Coin,8,16.2856100094,-0.0389365,4.18949,4.07549
EOS,9,2.71972586914,-0.0414712,4.61378,3.47469
Tezos,10,2.69409122058,1.19463,14.2724,27.0702
Chainlink,11,3.86286445581,-0.0178152,5.66951,11.624
Stellar,12,0.0631908415262,-0.739316,8.09079,28.966
Cardano,13,0.0436516489,0.207671,17.8425,26.4493
Monero,14,61.1507852011,0.413819,7.50285,7.8496
UNUS SED LEO,15,1.04487680993,-0.187911,-0.142587,1.0797
TRON,16,0.0141377102409,-0.736401,9.22981,9.46248
Huobi Token,17,3.99487192509,0.403749,4.32657,4.347
Dash,18,82.2713749444,-0.449355,2.67303,8.48344
Crypto.com Coin,19,0.0533799997728,0.615551,4.07444,5.50583
USD Coin,20,1.00210139141,-0.0730559,-0.0924632,-0.0139295
Ethereum Classic,21,5.66834071783,0.137971,5.80687,4.57798
HedgeTrade,22,2.06092104127,-0.0598709,4.34625,14.1847
Neo,23,8.23391331989,0.0587725,9.59071,9.13166
Cosmos,24,2.56984405463,3.83623,9.19465,7.43977
IOTA,25,0.16489623196,0.0621602,6.64557,4.49717
Zcash,26,45.1723262171,-0.0824648,1.44982,16.9495
NEM,27,0.0392848538123,-0.621363,8.0936,5.06159
Maker,28,334.609187364,-0.576806,2.24453,12.1354
OKB,29,4.96684069005,-0.0136435,4.86484,5.76431
Ontology,30,0.444522071119,-0.152718,7.5045,8.58877
FTX Token,31,2.82149476159,-0.00335123,4.69953,4.25876
Dogecoin,32,0.00208935297937,0.417598,3.72689,4.1349
Basic Attention Token,33,0.171887499229,-0.154282,5.19326,2.91545
Paxos Standard,34,1.00139865601,-0.046128,-0.0988997,-0.0974821
VeChain,35,0.00405705448502,0.00435149,5.54282,5.87192
Binance USD,36,1.00139548712,-0.0172286,-0.10704,-0.111236
DigiByte,37,0.0130810806065,0.15296,39.4509,100.035
Bitcoin Gold,38,9.37801379351,0.076922,3.3767,-6.47756
Decred,39,12.5974027259,0.100058,3.47589,1.50208
Algorand,40,0.200918285536,0.725805,9.37636,7.41078
ICON,41,0.260549819715,-0.554374,9.49512,11.5131
Qtum,42,1.42793254271,-0.362254,5.44755,2.28582
Hedera Hashgraph,43,0.0332486794277,-0.146376,4.58641,2.27908
TrueUSD,44,1.00195431811,0.00682454,-0.0484284,-0.0498315
Lisk,45,1.03825455756,0.0350286,3.08591,-0.084305
Synthetix Network Token,46,0.698664835545,0.247695,-3.14529,-5.21049
0x,47,0.178790925501,-0.922662,4.47935,3.77975
ZB Token,48,0.242158351118,-0.288958,2.46538,1.46633
Augur,49,10.1300955047,-0.758461,1.91154,1.4519
Ravencoin,50,0.017536176286,-0.581092,5.41709,5.08871
Waves,51,1.02048039921,-0.260198,3.5856,1.4287
Enjin Coin,52,0.127199116806,2.14505,11.7405,32.9267
Bitcoin Diamond,53,0.541230582322,0.831359,5.07662,3.00228
Multi-collateral DAI,54,1.01619548932,-0.0434682,0.639231,-0.155661
Kyber Network,55,0.490137206899,-0.336781,4.27417,1.95537
THETA,56,0.101334580524,0.392891,9.12507,28.9763
OmiseGO,57,0.619669009598,0.0817159,6.06125,9.196
MCO,58,5.11832482203,-0.348892,3.00896,-1.50832
MonaCoin,59,1.19907248826,-0.0711489,2.61432,0.524171
Nano,60,0.585481715976,-0.0835888,5.18717,4.3924
KuCoin Shares,61,0.954344619015,0.0774441,3.19651,1.8986
DxChain Token,62,0.0015255484673,-0.247187,2.34341,0.672511
Energi,63,2.61601539347,0.124592,9.35312,9.94165
DigixDAO,64,36.1464108103,-1.00243,9.46813,11.0179
Quant,65,5.79835069118,0.646086,2.30568,13.6097
Nervos Network,66,0.00487086980465,0.436803,5.99162,-1.60526
Status,67,0.0195327386593,0.282809,12.0659,18.7565
Komodo,68,0.552281301779,0.0893157,2.28407,-5.93082
ABBC Coin,69,0.116036874107,0.221766,7.65248,4.79241
Nexo,70,0.110026930676,-0.242188,3.30296,-1.05789
Steem,71,0.156941233666,0.109502,4.55271,3.9437
Bytom,72,0.0584333661304,-0.515227,4.11877,0.25036
Siacoin,73,0.0013969839504,-0.96255,3.35108,3.74848
Terra,74,0.19522671058,-0.269746,2.22113,-12.5232
Horizen,75,6.26467987589,0.698226,1.44913,13.1075
Seele,76,0.0797222116873,-0.454089,5.96787,9.66084
Holo,77,0.000337080915053,0.404348,4.17277,-1.34622
Numeraire,78,22.2131082847,0.231164,3.65002,21.8998
Ren,79,0.0622476049381,-0.660492,6.14867,12.4921
BitTorrent,80,0.000242122095294,0.767304,7.94252,5.74918
MaidSafeCoin,81,0.109166914597,-0.173797,0.289562,64.3891
BitShares,82,0.017330196853,-0.276522,2.93048,1.06538
v.systems,83,0.0241001774926,0.16826,4.6711,-1.63821
Verge,84,0.0028765225668,-0.845959,7.32149,1.98344
HyperCash,85,1.0425611056,0.531611,4.27032,0.525496
Hyperion,86,0.145608786183,0.462807,10.7688,17.8542
Zilliqa,87,0.00457282970373,-0.0410287,10.2202,7.51141
Aave,88,0.0348286911345,-0.178455,18.0591,45.4233
Bytecoin,89,0.000242893357864,-0.10229,2.05779,-3.38523
Blockstack,90,0.110773856051,6.32488,19.6586,21.0482
PAX Gold,91,1740.54458828,0.374881,1.27833,0.268488
Matic Network,92,0.0150297979451,-0.16813,18.429,17.9192
Zcoin,93,4.13346094117,-0.200039,4.66461,17.2576
IOST,94,0.00335290198229,-0.334168,7.07835,1.99078
Decentraland,95,0.0286613466599,-0.336979,2.73105,3.27786
Golem,96,0.0385794327507,-1.33832,4.63451,4.08357
Unibright,97,0.252643674283,-0.656533,10.5237,76.7353
Swipe,98,0.579882052219,-0.557107,-1.355,-7.84196
Insolar,99,0.893626051711,0.0463079,0.827294,-4.69069
Digitex Futures,100,0.0435294764506,0.182063,7.01756,-7.12856
