Coins,Rank,Price,1hourChange,1dayChange,7daysChange
Bitcoin,1,7938.53743159,0.182239,2.30837,14.0704
Ethereum,2,205.275298697,0.18779,4.4934,16.8837
XRP,3,0.21472787629,-0.0415526,7.56814,15.4394
Tether,4,1.00274615048,0.221552,-0.18802,-0.108023
Bitcoin Cash,5,244.936548258,0.0667232,1.40926,9.18872
Bitcoin SV,6,197.688627475,0.0876222,2.12213,6.15632
Litecoin,7,46.0506935475,-0.155606,3.51821,11.7411
Binance Coin,8,16.6433020467,0.163151,1.47704,8.17709
EOS,9,2.80226686687,0.105804,2.69694,9.5938
Tezos,10,2.77956440536,0.0106316,-0.41362,24.6531
Stellar,11,0.069375590492,0.156165,-0.701425,31.4615
Chainlink,12,3.70037373236,0.42877,1.83213,3.42429
Cardano,13,0.0479028739439,0.243091,0.71985,36.3474
Monero,14,63.6405745157,0.51423,1.18352,13.7689
UNUS SED LEO,15,1.0498714485,-0.0789533,-0.24066,0.529492
TRON,16,0.0153057714635,0.424177,3.32347,20.3325
Huobi Token,17,4.10147306704,-0.0494031,1.25209,9.03841
Crypto.com Coin,18,0.0578108759651,0.318954,3.15338,17.4838
Dash,19,83.1521796498,0.201182,1.21228,6.62185
Ethereum Classic,20,6.40554338335,0.800292,5.35312,21.0685
USD Coin,21,0.998772854016,0.162149,-0.263224,-0.340948
HedgeTrade,22,2.16368640408,-0.522184,4.68842,13.7378
Neo,23,8.61112583012,0.398929,2.05285,16.9164
Cosmos,24,2.78817177371,-0.126322,-0.0645057,20.2128
IOTA,25,0.177524332243,-0.26544,4.28811,15.0312
Zcash,26,44.8169057367,0.0136924,1.77378,2.79495
NEM,27,0.0415180427442,0.384187,4.7846,16.0053
Maker,28,347.295819251,0.41819,1.86223,10.6029
Ontology,29,0.48684765482,0.0102566,3.77436,20.7052
OKB,30,4.98574270998,-0.0133794,1.95981,6.19354
Dogecoin,31,0.00237083880084,0.160601,0.654387,18.7684
FTX Token,32,2.96538673918,0.433057,2.72522,12.5701
Basic Attention Token,33,0.184379939631,0.106288,3.80765,13.3913
Paxos Standard,34,1.00031710872,0.102236,-0.471572,-0.247864
VeChain,35,0.00432815746932,0.64882,-1.69034,14.6169
DigiByte,36,0.0155215959701,9.77828,38.2262,93.5547
Binance USD,37,0.999082400918,0.207658,-0.437137,-0.259676
Bitcoin Gold,38,9.60211023957,0.500381,3.00375,6.98299
Lisk,39,1.27018032549,-1.83138,10.6053,27.521
ICON,40,0.286644188425,-0.229789,2.79903,24.8739
Algorand,41,0.217291585562,-0.814041,0.688304,19.8467
Decred,42,13.1854492996,0.00159132,1.05167,10.1546
Qtum,43,1.53970765134,-0.0736106,2.9482,15.0793
Synthetix Network Token,44,0.780909557065,-0.711599,3.08182,8.72693
Hedera Hashgraph,45,0.0341710638381,0.895405,0.724857,8.75545
TrueUSD,46,1.00128867135,0.164424,-0.415422,-0.0844957
0x,47,0.20416339902,0.0595644,1.2936,19.6321
Kyber Network,48,0.666275217625,0.314701,0.84223,43.0356
Ravencoin,49,0.0195359092123,-0.0713229,2.14971,19.7045
Hive,50,0.421104749898,-0.582091,-18.7256,269.931
Augur,51,10.6464087921,0.490545,2.47592,7.94987
Enjin Coin,52,0.143714163522,1.72032,6.28562,30.0132
ZB Token,53,0.250219404127,0.169282,3.59677,6.60301
Waves,54,1.07046001965,0.18593,0.778548,9.62852
Bitcoin Diamond,55,0.549895068208,0.19828,2.44457,8.04363
Multi-collateral DAI,56,1.00713079497,0.141374,0.161131,-0.447977
THETA,57,0.111107151645,-0.823567,5.50667,27.0974
Energi,58,3.32610740564,0.334476,4.20752,40.8014
OmiseGO,59,0.671696101467,-0.190334,3.21196,16.727
DxChain Token,60,0.00173517977867,0.81032,4.80951,19.9111
MCO,61,5.30107118748,0.266412,4.0083,6.98103
MonaCoin,62,1.26494988662,-0.105689,4.33632,9.03614
Nano,63,0.607170686445,0.0610795,2.86652,9.66489
KuCoin Shares,64,0.961629580459,0.541108,0.618661,5.5733
DigixDAO,65,38.7811228927,-0.687887,3.80079,16.2164
Hyperion,66,0.240138650878,-3.08722,38.5347,84.1097
Siacoin,67,0.00176692334439,0.592517,3.18347,33.2712
Steem,68,0.195881859519,-0.68517,-6.15801,31.3898
Status,69,0.0194512943746,0.507413,4.51983,12.1261
Bytom,70,0.0671792763985,-0.162502,2.33245,20.1855
Nervos Network,71,0.00470320203719,0.100715,-0.999948,0.898479
ABBC Coin,72,0.118204709517,-0.0702443,0.852392,10.2778
Komodo,73,0.546263867644,-4.09396,-3.13975,0.830478
Quant,74,5.29366746278,-0.0210097,7.1323,1.18098
Nexo,75,0.107796824983,-0.114799,3.66846,1.46497
Seele-N,76,0.0824974116993,-0.147077,-3.73663,9.10036
Holo,77,0.000350930890283,0.27189,1.41621,10.1607
Terra,78,0.198400553345,0.136568,0.882934,-0.537997
Ren,79,0.066137350043,-1.03618,0.455982,15.8686
Horizen,80,6.16582180603,-0.148858,1.60834,4.69597
Matic Network,81,0.015932420719,0.276287,5.06317,29.0864
Aave,82,0.0418513349285,-0.391672,1.27205,50.5852
Unibright,83,0.361947888801,-1.35452,16.0182,78.0335
BitTorrent,84,0.00025315255479,0.462788,3.70516,13.8418
BitShares,85,0.0192476842684,-0.352327,7.84683,16.3676
Numeraire,86,21.2800325445,-0.044715,1.81862,-1.56355
Zilliqa,87,0.00504564154599,-0.0611029,1.89195,21.8473
v.systems,88,0.0254690485244,0.155544,1.92729,10.0017
Verge,89,0.00303475430558,0.0250994,4.8133,12.9176
HyperCash,90,1.09227928247,0.258502,2.08803,10.3026
MaidSafeCoin,91,0.0971574763385,0.837314,-2.83816,-11.9765
Decentraland,92,0.0320317945302,0.25713,-2.17714,15.1207
PAX Gold,93,1733.15458841,0.176093,0.340302,-4.93639
IOST,94,0.00360891468213,0.306322,2.79591,16.4281
Golem,95,0.0433382201644,-0.634222,3.09502,17.2659
Blockstack,96,0.106004834947,-0.081765,-1.40692,17.1121
Zcoin,97,3.99290485202,-0.0881579,1.23931,-1.2915
aelf,98,0.0715151301418,-0.0756328,1.83057,18.4943
Ardor,99,0.0384157685512,0.43596,3.22532,15.345
Digitex Futures,100,0.0459953611027,0.204694,-7.25584,12.3087
