[
    {
        "from":"2020-06-09T17:56:00",
        "to":"2020-07-06T20:37:00",
        "fromCoin":"Zcash",
        "toCoin":"Tezos",
        "amountOfFromCoin":3.8999,
        "amountOfToCoin":89.152014,
        "profitRate":29
    },
    {
        "from":"2020-06-23T22:30:00",
        "to":"2020-07-06T21:05:00",
        "fromCoin":"Tron",
        "toCoin":"Tezos",
        "amountOfFromCoin":13259.415,
        "amountOfToCoin":98.612841,
        "profitRate":24.5
    },
    {
        "from":"2020-06-10T17:53:00",
        "to":"2020-07-06T21:19:00",
        "fromCoin":"Bitcoin SV",
        "toCoin":"Tezos",
        "amountOfFromCoin":1.042,
        "amountOfToCoin":81.565428,
        "profitRate":19
    },
    {
        "from":"2020-06-09T17:56:00",
        "to":"2020-07-06T22:47:00",
        "fromCoin":"Litecoin",
        "toCoin":"Tezos",
        "amountOfFromCoin":4.3331,
        "amountOfToCoin":78.881961,
        "profitRate":15.7
    },
    {
        "from":"2020-06-09T17:51:00",
        "to":"2020-07-06T23:45:00",
        "fromCoin":"XRP",
        "toCoin":"Tezos",
        "amountOfFromCoin":984.0015,
        "amountOfToCoin":73.604084,
        "profitRate":9.6
    },
    {
        "from":"2020-06-10T17:55:00",
        "to":"2020-07-07T00:05:00",
        "fromCoin":"EOS",
        "toCoin":"Maker",
        "amountOfFromCoin":72.0562,
        "amountOfToCoin":0.39165609,
        "profitRate":38.3
    },
    {
        "from":"2020-06-10T17:57:00",
        "to":"2020-07-07T00:13:00",
        "fromCoin":"Bitcoin Cash",
        "toCoin":"Maker",
        "amountOfFromCoin":0.7754671,
        "amountOfToCoin":0.39290434,
        "profitRate":39
    },
    {
        "from":"2020-07-06T20:37:00",
        "to":"2020-07-15T22:07:00",
        "fromCoin":"Tezos",
        "toCoin":"Kyber Network",
        "amountOfFromCoin":421.53565,
        "amountOfToCoin":785.64325,
        "profitRate":36.5
    },
    {
        "from":"2020-07-15T22:07:00",
        "to":"2020-07-18T17:19:00",
        "fromCoin":"Kyber Network",
        "toCoin":"Neo",
        "amountOfFromCoin":393,
        "amountOfToCoin":68,
        "profitRate":18.4
    },
    {
        "from":"2020-07-15T22:07:00",
        "to":"2020-07-18T17:22:00",
        "fromCoin":"Kyber Network",
        "toCoin":"TRON",
        "amountOfFromCoin":392.64325,
        "amountOfToCoin":41544.17,
        "profitRate":16
    },
    {
        "from":"2020-07-18T17:19:00",
        "to":"2020-07-23T11:01:00",
        "fromCoin":"Neo",
        "toCoin":"Kyber Network",
        "amountOfFromCoin":68,
        "amountOfToCoin":466.90235,
        "profitRate":18.7
    },
    {
        "from":"2020-07-07T00:05:00",
        "to":"2020-07-23T20:17:00",
        "fromCoin":"Maker",
        "toCoin":"Kyber Network",
        "amountOfFromCoin":0.78456043,
        "amountOfToCoin":266.58573,
        "profitRate":23.7
    },
    {
        "from":"2020-07-18T17:22:00",
        "to":"2020-07-25T12:251:00",
        "fromCoin":"TRON",
        "toCoin":"Kyber Network",
        "amountOfFromCoin":41544.17,
        "amountOfToCoin":477.31352,
        "profitRate":21.7
    },
    {
        "from":"2020-07-18T00:27:00",
        "to":"2020-07-27T11:51:00",
        "fromCoin":"Dash",
        "toCoin":"Tezos",
        "amountOfFromCoin":9.907908,
        "amountOfToCoin":254.95706,
        "profitRate":19.5
    },
    {
        "from":"2020-06-10T18:07:00",
        "to":"2020-07-27T21:00:00",
        "fromCoin":"Ontology",
        "toCoin":"Ripio Credit Network",
        "amountOfFromCoin":331,
        "amountOfToCoin":4309.125,
        "profitRate":67.9
    },
    {
        "from":"2020-06-23T22:00:00",
        "to":"2020-07-27T21:00:00",
        "fromCoin":"Cosmos",
        "toCoin":"Ripio Credit Network",
        "amountOfFromCoin":71.57501,
        "amountOfToCoin":4956.93,
        "profitRate":80.7
    },
    {
        "from":"2020-07-01T15:10:00",
        "to":"2020-07-27T21:00:00",
        "fromCoin":"Bitcoin",
        "toCoin":"Ripio Credit Network",
        "amountOfFromCoin":0.04230374,
        "amountOfToCoin":8893.198,
        "profitRate":37.5
    },
    {
        "from":"2020-07-27T21:00:00",
        "to":"2020-08-11T13:08:00",
        "fromCoin":"Ripio Credit Network",
        "toCoin":"Bitcoin SV",
        "amountOfFromCoin":18159.25,
        "amountOfToCoin":5.0233,
        "profitRate": 15.5
    },
    {
        "from":"2020-07-27T11:51:00",
        "to":"2020-08-12T17:30:00",
        "fromCoin":"Tezos",
        "toCoin":"Ethereum Classic",
        "amountOfFromCoin": 254.95706,
        "amountOfToCoin":161.56,
        "profitRate": 57.8
    },
    {
        "from":"2020-07-25T12:251:00",
        "to":"2020-08-14T11:45:00",
        "fromCoin":"Kyber Network",
        "toCoin":"Augur",
        "amountOfFromCoin": 605,
        "amountOfToCoin":56.617,
        "profitRate": 23
    },
    {
        "from":"2020-08-12T17:30:00",
        "to":"2020-08-18T10:30:00",
        "fromCoin":"Ethereum Classic",
        "toCoin":"Tezos",
        "amountOfFromCoin": 161.56,
        "amountOfToCoin":300.95,
        "profitRate": 21.4
    },
    {
        "from":"2020-08-07T12:33:00",
        "to":"2020-08-21T09:57:00",
        "fromCoin":"Nano",
        "toCoin":"Zcash",
        "amountOfFromCoin": 1049.6693,
        "amountOfToCoin": 17.119,
        "profitRate": 51.6
    },
    {
        "from":"2020-08-14T12:33:00",
        "to":"2020-08-21T21:18:00",
        "fromCoin":"Augur",
        "toCoin":"Tezos",
        "amountOfFromCoin": 53.617,
        "amountOfToCoin": 382.22,
        "profitRate": 44
    }
]